mophong_vcd/Top_module_pipeline_RISC_V_32I_tb.vcd
$date
	Mon May  4 20:01:25 2026
$end
$version
	Icarus Verilog
$end
$timescale
	1ps
$end
$scope module Top_module_pipeline_RISC_V_32I_tb $end
$var wire 32 ! value [31:0] $end
$var reg 1 " DataOrReg $end
$var reg 32 # address [31:0] $end
$var reg 32 $ check_address [31:0] $end
$var reg 1 % clk $end
$var reg 32 & instruction [31:0] $end
$var reg 1 ' rst_n $end
$var reg 1 ( start $end
$var integer 32 ) error_count [31:0] $end
$var integer 32 * flush_count [31:0] $end
$scope function ENC_B $end
$upscope $end
$scope function ENC_I $end
$upscope $end
$scope function ENC_J $end
$upscope $end
$scope function ENC_R $end
$upscope $end
$scope function ENC_S $end
$upscope $end
$scope module uut $end
$var wire 1 " DataOrReg $end
$var wire 32 + address [31:0] $end
$var wire 1 , branch_taken_E $end
$var wire 32 - check_address [31:0] $end
$var wire 1 % clk $end
$var wire 1 . flush_id_ex_total $end
$var wire 1 / flush_if_id_total $end
$var wire 32 0 instruction [31:0] $end
$var wire 1 ' rst_n $end
$var wire 1 1 stall_id_ex_total $end
$var wire 1 2 stall_if_id_total $end
$var wire 1 3 stall_pc_total $end
$var wire 1 ( start $end
$var wire 2 4 write_back_W [1:0] $end
$var wire 2 5 write_back_M [1:0] $end
$var wire 2 6 write_back_E [1:0] $end
$var wire 2 7 write_back_D [1:0] $end
$var wire 1 8 wb_regWrite $end
$var wire 5 9 wb_rd [4:0] $end
$var wire 32 : wb_data [31:0] $end
$var wire 32 ; value [31:0] $end
$var wire 3 < store_sel_M [2:0] $end
$var wire 3 = store_sel_E [2:0] $end
$var wire 3 > store_sel_D [2:0] $end
$var wire 1 ? stall_pc_hazard $end
$var wire 1 @ stall_if_id_hazard $end
$var wire 32 A rs2_data_M [31:0] $end
$var wire 32 B rs2_data_E [31:0] $end
$var wire 32 C rs2_data_D [31:0] $end
$var wire 5 D rs2_E [4:0] $end
$var wire 32 E rs1_data_E [31:0] $end
$var wire 32 F rs1_data_D [31:0] $end
$var wire 5 G rs1_E [4:0] $end
$var wire 1 H regWrite_E $end
$var wire 1 I regWrite_D $end
$var wire 5 J rd_E [4:0] $end
$var wire 32 K predicted_pc_next_F [31:0] $end
$var wire 1 L pred_taken_F $end
$var wire 32 M pc_target_E [31:0] $end
$var wire 32 N pc_restore_E [31:0] $end
$var wire 32 O pc_next_F [31:0] $end
$var wire 32 P pc_F [31:0] $end
$var wire 32 Q pc_E [31:0] $end
$var wire 32 R pc_D [31:0] $end
$var wire 32 S pc4_W [31:0] $end
$var wire 32 T pc4_M [31:0] $end
$var wire 32 U pc4_F [31:0] $end
$var wire 32 V pc4_E [31:0] $end
$var wire 32 W pc4_D [31:0] $end
$var wire 1 X mem_regWrite_M $end
$var wire 32 Y mem_read_data_M [31:0] $end
$var wire 5 Z mem_rd_M [4:0] $end
$var wire 32 [ mem_data_W [31:0] $end
$var wire 32 \ mem_alu_result_M [31:0] $end
$var wire 1 ] memWrite_M $end
$var wire 1 ^ memWrite_E $end
$var wire 1 _ memWrite_D $end
$var wire 3 ` load_sel_M [2:0] $end
$var wire 3 a load_sel_E [2:0] $end
$var wire 3 b load_sel_D [2:0] $end
$var wire 1 c less_unsigned_E $end
$var wire 1 d less_signed_E $end
$var wire 32 e jump_target_E [31:0] $end
$var wire 2 f jump_E [1:0] $end
$var wire 2 g jump_D [1:0] $end
$var wire 1 h is_jump_E $end
$var wire 32 i instr_F [31:0] $end
$var wire 32 j instr_D [31:0] $end
$var wire 3 k imm_sel_E [2:0] $end
$var wire 3 l imm_sel_D [2:0] $end
$var wire 32 m imm_E [31:0] $end
$var wire 32 n imm_D [31:0] $end
$var wire 2 o forwardB [1:0] $end
$var wire 2 p forwardA [1:0] $end
$var wire 1 q flush_if_id_hazard $end
$var wire 1 r flush_id_ex_hazard $end
$var wire 32 s ex_rs2_fwd [31:0] $end
$var wire 32 t ex_rs1_fwd [31:0] $end
$var wire 1 u equal_E $end
$var wire 3 v bropcode_E [2:0] $end
$var wire 3 w bropcode_D [2:0] $end
$var wire 1 x branch_E $end
$var wire 1 y branch_D $end
$var wire 1 z bpu_flush_E $end
$var wire 1 { alu_zero_E $end
$var wire 1 | alu_srcB_E $end
$var wire 1 } alu_srcB_D $end
$var wire 1 ~ alu_srcA_E $end
$var wire 1 !" alu_srcA_D $end
$var wire 32 "" alu_result_W [31:0] $end
$var wire 32 #" alu_result_E [31:0] $end
$var wire 10 $" alu_ctrl_E_10b [9:0] $end
$var wire 11 %" alu_ctrl_E [10:0] $end
$var wire 11 &" alu_ctrl_D [10:0] $end
$var wire 32 '" alu_b_E [31:0] $end
$var wire 32 (" alu_a_E [31:0] $end
$var reg 1 )" pred_taken_D $end
$var reg 1 *" pred_taken_E $end
$scope module alu $end
$var wire 32 +" a [31:0] $end
$var wire 11 ," alu_ctrl [10:0] $end
$var wire 32 -" b [31:0] $end
$var wire 1 { zero $end
$var reg 32 ." result [31:0] $end
$upscope $end
$scope module bpu $end
$var wire 1 , branch $end
$var wire 1 % clk $end
$var wire 1 z flush $end
$var wire 1 h jump_E $end
$var wire 32 /" pc_target [31:0] $end
$var wire 8 0" pht_predict_index [7:0] $end
$var wire 1 1" pht_update_en $end
$var wire 8 2" pht_update_index [7:0] $end
$var wire 1 ' rst_n $end
$var wire 1 *" taken_E $end
$var wire 1 L taken_F $end
$var wire 2 3" pht_prediction [1:0] $end
$var wire 32 4" pc_restore [31:0] $end
$var wire 32 5" pc_next [31:0] $end
$var wire 32 6" pc_F [31:0] $end
$var wire 32 7" pc_E [31:0] $end
$var wire 32 8" btb_pc_out [31:0] $end
$var wire 1 9" btb_hit $end
$var wire 1 x branch_E $end
$var reg 8 :" ghr [7:0] $end
$scope module btb_inst $end
$var wire 1 % clk $end
$var wire 1 h jump_E $end
$var wire 32 ;" pc_target_E [31:0] $end
$var wire 1 ' rst_n $end
$var wire 32 <" pc_F [31:0] $end
$var wire 32 =" pc_E [31:0] $end
$var wire 8 >" index_F [7:0] $end
$var wire 8 ?" index_E [7:0] $end
$var wire 1 x branch_E $end
$var reg 1 9" hit $end
$var reg 32 @" pc_out [31:0] $end
$var integer 32 A" i [31:0] $end
$upscope $end
$scope module pht_inst $end
$var wire 1 % clk $end
$var wire 8 B" predict_index [7:0] $end
$var wire 2 C" prediction [1:0] $end
$var wire 1 ' rst_n $end
$var wire 1 1" update_en $end
$var wire 8 D" update_index [7:0] $end
$var wire 1 , update_taken $end
$var reg 2 E" update_counter [1:0] $end
$var integer 32 F" i [31:0] $end
$upscope $end
$upscope $end
$scope module cu $end
$var wire 3 G" funct3 [2:0] $end
$var wire 7 H" funct7 [6:0] $end
$var wire 7 I" opcode [6:0] $end
$var parameter 11 J" ALU_ADD $end
$var parameter 11 K" ALU_AND $end
$var parameter 11 L" ALU_LUI $end
$var parameter 11 M" ALU_OR $end
$var parameter 11 N" ALU_SLL $end
$var parameter 11 O" ALU_SLT $end
$var parameter 11 P" ALU_SLTU $end
$var parameter 11 Q" ALU_SRA $end
$var parameter 11 R" ALU_SRL $end
$var parameter 11 S" ALU_SUB $end
$var parameter 11 T" ALU_XOR $end
$var reg 11 U" alu_ctrl [10:0] $end
$var reg 1 !" alu_srcA_D $end
$var reg 1 } alu_srcB_D $end
$var reg 1 y branch_D $end
$var reg 3 V" bropcode [2:0] $end
$var reg 3 W" imm_sel [2:0] $end
$var reg 2 X" jump_D [1:0] $end
$var reg 3 Y" load_sel_D [2:0] $end
$var reg 1 _ memWrite_D $end
$var reg 1 I regWrite_D $end
$var reg 3 Z" store_sel_D [2:0] $end
$var reg 2 [" write_back_D [1:0] $end
$upscope $end
$scope module dmem $end
$var wire 1 % clk $end
$var wire 32 \" raw_word [31:0] $end
$var wire 32 ]" write_data [31:0] $end
$var wire 3 ^" store_sel [2:0] $end
$var wire 1 ] mem_write $end
$var wire 3 _" load_sel [2:0] $end
$var wire 32 `" addr [31:0] $end
$var reg 8 a" byte_to_load [7:0] $end
$var reg 16 b" half_to_load [15:0] $end
$var reg 32 c" read_data [31:0] $end
$upscope $end
$scope module ex_mem_reg $end
$var wire 1 % clk $end
$var wire 32 d" ex_alu_result [31:0] $end
$var wire 32 e" ex_rs2_data [31:0] $end
$var wire 1 f" flush $end
$var wire 1 ' rst_n $end
$var wire 2 g" ex_write_back [1:0] $end
$var wire 3 h" ex_store_sel [2:0] $end
$var wire 1 H ex_regWrite $end
$var wire 5 i" ex_rd [4:0] $end
$var wire 32 j" ex_pc_plus4 [31:0] $end
$var wire 1 ^ ex_memWrite $end
$var wire 3 k" ex_load_sel [2:0] $end
$var reg 32 l" mem_alu_result [31:0] $end
$var reg 3 m" mem_load_sel [2:0] $end
$var reg 1 ] mem_memWrite $end
$var reg 32 n" mem_pc_plus4 [31:0] $end
$var reg 5 o" mem_rd [4:0] $end
$var reg 1 X mem_regWrite $end
$var reg 32 p" mem_rs2_data [31:0] $end
$var reg 3 q" mem_store_sel [2:0] $end
$var reg 2 r" mem_write_back [1:0] $end
$upscope $end
$scope module fwd_unit $end
$var wire 5 s" ex_mem_rd [4:0] $end
$var wire 1 X ex_mem_regWrite $end
$var wire 1 8 mem_wb_regWrite $end
$var wire 5 t" mem_wb_rd [4:0] $end
$var wire 5 u" id_ex_rs2 [4:0] $end
$var wire 5 v" id_ex_rs1 [4:0] $end
$var reg 2 w" forwardA [1:0] $end
$var reg 2 x" forwardB [1:0] $end
$upscope $end
$scope module hazard_unit $end
$var wire 1 z branch_mispredicted $end
$var wire 5 y" if_id_rs1 [4:0] $end
$var wire 5 z" if_id_rs2 [4:0] $end
$var wire 2 {" id_ex_wb_sel [1:0] $end
$var wire 5 |" id_ex_rd [4:0] $end
$var reg 1 r flush_id_ex $end
$var reg 1 q flush_if_id $end
$var reg 1 @ stall_if_id $end
$var reg 1 ? stall_pc $end
$upscope $end
$scope module id_ex_reg $end
$var wire 1 % clk $end
$var wire 1 . flush $end
$var wire 10 }" id_alu_ctrl [9:0] $end
$var wire 1 !" id_alu_srcA $end
$var wire 1 } id_alu_srcB $end
$var wire 1 y id_branch $end
$var wire 3 ~" id_bropcode [2:0] $end
$var wire 3 !# id_imm_sel [2:0] $end
$var wire 2 "# id_jump [1:0] $end
$var wire 3 ## id_load_sel [2:0] $end
$var wire 1 _ id_memWrite $end
$var wire 5 $# id_rd [4:0] $end
$var wire 1 I id_regWrite $end
$var wire 5 %# id_rs1 [4:0] $end
$var wire 5 &# id_rs2 [4:0] $end
$var wire 3 '# id_store_sel [2:0] $end
$var wire 2 (# id_write_back [1:0] $end
$var wire 1 ' rst_n $end
$var wire 1 1 stall $end
$var wire 32 )# id_rs2_data [31:0] $end
$var wire 32 *# id_rs1_data [31:0] $end
$var wire 32 +# id_pc_plus4 [31:0] $end
$var wire 32 ,# id_pc [31:0] $end
$var wire 32 -# id_imm [31:0] $end
$var reg 10 .# ex_alu_ctrl [9:0] $end
$var reg 1 ~ ex_alu_srcA $end
$var reg 1 | ex_alu_srcB $end
$var reg 1 x ex_branch $end
$var reg 3 /# ex_bropcode [2:0] $end
$var reg 32 0# ex_imm [31:0] $end
$var reg 3 1# ex_imm_sel [2:0] $end
$var reg 2 2# ex_jump [1:0] $end
$var reg 3 3# ex_load_sel [2:0] $end
$var reg 1 ^ ex_memWrite $end
$var reg 32 4# ex_pc [31:0] $end
$var reg 32 5# ex_pc_plus4 [31:0] $end
$var reg 5 6# ex_rd [4:0] $end
$var reg 1 H ex_regWrite $end
$var reg 5 7# ex_rs1 [4:0] $end
$var reg 32 8# ex_rs1_data [31:0] $end
$var reg 5 9# ex_rs2 [4:0] $end
$var reg 32 :# ex_rs2_data [31:0] $end
$var reg 3 ;# ex_store_sel [2:0] $end
$var reg 2 <# ex_write_back [1:0] $end
$upscope $end
$scope module if_id_reg $end
$var wire 1 % clk $end
$var wire 1 / flush $end
$var wire 32 =# if_pc_plus4 [31:0] $end
$var wire 1 ' rst_n $end
$var wire 1 2 stall $end
$var wire 32 ># if_pc [31:0] $end
$var wire 32 ?# if_instr [31:0] $end
$var reg 32 @# id_instr [31:0] $end
$var reg 32 A# id_pc [31:0] $end
$var reg 32 B# id_pc_plus4 [31:0] $end
$upscope $end
$scope module imem $end
$var wire 32 C# addr_ext [31:0] $end
$var wire 1 % clk $end
$var wire 32 D# din_ext [31:0] $end
$var wire 32 E# instr [31:0] $end
$var wire 1 ' rst_n $end
$var wire 1 F# we $end
$var wire 32 G# pc [31:0] $end
$var integer 32 H# i [31:0] $end
$upscope $end
$scope module imm_gen $end
$var wire 3 I# imm_sel [2:0] $end
$var wire 32 J# instr [31:0] $end
$var reg 32 K# imm_ext [31:0] $end
$upscope $end
$scope module mem_wb_reg $end
$var wire 1 % clk $end
$var wire 32 L# mem_alu_result [31:0] $end
$var wire 32 M# mem_mem_data [31:0] $end
$var wire 32 N# mem_pc_plus4 [31:0] $end
$var wire 5 O# mem_rd [4:0] $end
$var wire 1 X mem_regWrite $end
$var wire 2 P# mem_write_back [1:0] $end
$var wire 1 ' rst_n $end
$var reg 32 Q# wb_alu_result [31:0] $end
$var reg 32 R# wb_mem_data [31:0] $end
$var reg 32 S# wb_pc_plus4 [31:0] $end
$var reg 5 T# wb_rd [4:0] $end
$var reg 1 8 wb_regWrite $end
$var reg 2 U# wb_write_back [1:0] $end
$upscope $end
$scope module pc_reg $end
$var wire 1 % clk $end
$var wire 32 V# pc_next [31:0] $end
$var wire 1 ' rst_n $end
$var wire 1 3 stall $end
$var wire 1 ( start $end
$var reg 32 W# pc_out [31:0] $end
$upscope $end
$scope module regfile $end
$var wire 1 % clk $end
$var wire 5 X# rd [4:0] $end
$var wire 1 8 reg_write $end
$var wire 5 Y# rs1 [4:0] $end
$var wire 5 Z# rs2 [4:0] $end
$var wire 1 ' rst_n $end
$var wire 32 [# wd [31:0] $end
$var wire 32 \# rd2 [31:0] $end
$var wire 32 ]# rd1 [31:0] $end
$var integer 32 ^# i [31:0] $end
$upscope $end
$upscope $end
$scope task check_equal $end
$upscope $end
$scope task check_mem_word_via_debug $end
$upscope $end
$scope task check_reg_via_debug $end
$upscope $end
$scope task load_instr $end
$upscope $end
$upscope $end
$enddefinitions $end
$comment Show the parameter values. $end
$dumpall
b100000 T"
b10 S"
b1000000 R"
b10000000 Q"
b10000 P"
b1000 O"
b100 N"
b100000000 M"
b10000000000 L"
b1000000000 K"
b1 J"
$end
#0
$dumpvars
b100000 ^#
b0 ]#
b0 \#
b0 [#
b0 Z#
b0 Y#
b0 X#
b0 W#
b100 V#
b0 U#
b0 T#
b100 S#
b0 R#
b0 Q#
b0 P#
b0 O#
b0 N#
bx M#
b0 L#
b0 K#
b10011 J#
b0 I#
b10000000000 H#
b0 G#
1F#
b10011 E#
b10011 D#
b0 C#
b100 B#
b0 A#
b10011 @#
b10011 ?#
b0 >#
b100 =#
b0 <#
b0 ;#
b0 :#
b0 9#
b0 8#
b0 7#
b0 6#
b100 5#
b0 4#
b0 3#
b0 2#
b0 1#
b0 0#
b0 /#
b0 .#
b0 -#
b0 ,#
b100 +#
b0 *#
b0 )#
b0 (#
b10 '#
b0 &#
b0 %#
b0 $#
b10 ##
b0 "#
b0 !#
b0 ~"
b1 }"
b0 |"
b0 {"
b0 z"
b0 y"
b0 x"
b0 w"
b0 v"
b0 u"
b0 t"
b0 s"
b0 r"
b0 q"
b0 p"
b0 o"
b0 n"
b0 m"
b0 l"
b0 k"
b100 j"
b0 i"
b0 h"
b0 g"
0f"
b0 e"
b0 d"
bx c"
bx b"
bx a"
b0 `"
b0 _"
b0 ^"
b0 ]"
bx \"
b0 ["
b10 Z"
b10 Y"
b0 X"
b0 W"
b0 V"
b1 U"
b10011 I"
b0 H"
b0 G"
b100000000 F"
bx E"
b0 D"
b1 C"
b0 B"
b100000000 A"
b0 @"
b0 ?"
b0 >"
b0 ="
b0 <"
b0 ;"
b0 :"
09"
b0 8"
b0 7"
b0 6"
b100 5"
b100 4"
b1 3"
b0 2"
01"
b0 0"
b0 /"
b0 ."
b0 -"
b0 ,"
b0 +"
0*"
0)"
b0 ("
b0 '"
b1 &"
b0 %"
b0 $"
b0 #"
b0 ""
0!"
0~
1}
0|
1{
0z
0y
0x
b0 w
b0 v
1u
b0 t
b0 s
0r
0q
b0 p
b0 o
b0 n
b0 m
b0 l
b0 k
b10011 j
b10011 i
0h
b0 g
b0 f
b0 e
0d
0c
b10 b
b0 a
b0 `
0_
0^
0]
b0 \
b0 [
b0 Z
bx Y
0X
b100 W
b100 V
b100 U
b0 T
b100 S
b0 R
b0 Q
b0 P
b100 O
b100 N
b0 M
0L
b100 K
b0 J
1I
0H
b0 G
b0 F
b0 E
b0 D
b0 C
b0 B
b0 A
0@
0?
b10 >
b0 =
b0 <
b0 ;
b0 :
b0 9
08
b0 7
b0 6
b0 5
b0 4
13
12
11
b10011 0
0/
0.
b0 -
0,
b0 +
b0 *
b0 )
0(
0'
b10011 &
0%
b0 $
b0 #
0"
b0 !
$end
#5000
b100000000 A"
b100000000 F"
b100000 ^#
b10000000000 H#
1%
#10000
0%
#15000
b10000000000 H#
b100000 ^#
b100000000 F"
b100000000 A"
1%
#20000
1'
0%
#25000
bx [
bx R#
b0 S
b0 S#
b100 T
b100 n"
b100 N#
1%
#30000
b10100000000000010010011 &
b10100000000000010010011 0
b10100000000000010010011 D#
0%
#35000
b10100000000000010010011 i
b10100000000000010010011 ?#
b10100000000000010010011 E#
b100 S
b100 S#
1%
#40000
b11100000000000100010011 &
b11100000000000100010011 0
b11100000000000100010011 D#
b100 #
b100 +
b100 C#
0%
#45000
1%
#50000
b1000001000000110110011 &
b1000001000000110110011 0
b1000001000000110110011 D#
b1000 #
b1000 +
b1000 C#
0%
#55000
1%
#60000
b100011000001000110011 &
b100011000001000110011 0
b100011000001000110011 D#
b1100 #
b1100 +
b1100 C#
0%
#65000
1%
#70000
b110010000000000010100010011 &
b110010000000000010100010011 0
b110010000000000010100010011 D#
b10000 #
b10000 +
b10000 C#
0%
#75000
1%
#80000
b101000000010000000100011 &
b101000000010000000100011 0
b101000000010000000100011 D#
b10100 #
b10100 +
b10100 C#
0%
#85000
1%
#90000
b10001010000011 &
b10001010000011 0
b10001010000011 D#
b11000 #
b11000 +
b11000 C#
0%
#95000
1%
#100000
b100101000001100110011 &
b100101000001100110011 0
b100101000001100110011 D#
b11100 #
b11100 +
b11100 C#
0%
#105000
1%
#110000
b11000110000010001100011 &
b11000110000010001100011 0
b11000110000010001100011 D#
b100000 #
b100000 +
b100000 C#
0%
#115000
1%
#120000
b110001100000000001110010011 &
b110001100000000001110010011 0
b110001100000000001110010011 D#
b100100 #
b100100 +
b100100 C#
0%
#125000
1%
#130000
b10101000000000001110010011 &
b10101000000000001110010011 0
b10101000000000001110010011 D#
b101000 #
b101000 +
b101000 C#
0%
#135000
1%
#140000
b100000000000000010000010011 &
b100000000000000010000010011 0
b100000000000000010000010011 D#
b101100 #
b101100 +
b101100 C#
0%
#145000
1%
#150000
b100000000000010011101111 &
b100000000000010011101111 0
b100000000000010011101111 D#
b110000 #
b110000 +
b110000 C#
0%
#155000
1%
#160000
b100110100000000010110010011 &
b100110100000000010110010011 0
b100110100000000010110010011 D#
b110100 #
b110100 +
b110100 C#
0%
#165000
1%
#170000
b1000000011001100111 &
b1000000011001100111 0
b1000000011001100111 D#
b111000 #
b111000 +
b111000 C#
0%
#175000
1%
#180000
b101100000000000011010010011 &
b101100000000000011010010011 0
b101100000000000011010010011 D#
b111100 #
b111100 +
b111100 C#
0%
#185000
1%
#190000
b1000001001010001100011 &
b1000001001010001100011 0
b1000001001010001100011 D#
b1000000 #
b1000000 +
b1000000 C#
0%
#195000
1%
#200000
b101100000000011100010011 &
b101100000000011100010011 0
b101100000000011100010011 D#
b1000100 #
b1000100 +
b1000100 C#
0%
#205000
1%
#210000
b1011000000000011100010011 &
b1011000000000011100010011 0
b1011000000000011100010011 D#
b1001000 #
b1001000 +
b1001000 C#
0%
#215000
1%
#220000
b1101111 &
b1101111 0
b1101111 D#
b1001100 #
b1001100 +
b1001100 C#
0%
#225000
1%
#230000
03
02
01
0F#
1(
0%
#235000
b1000 O
b1000 V#
b1 0"
b1 B"
b11100000000000100010011 i
b11100000000000100010011 ?#
b11100000000000100010011 E#
b1 >"
b1000 K
b1000 5"
b101 n
b101 -#
b101 K#
b101 z"
b101 &#
b1 $#
b101 Z#
b1000 U
b1000 =#
b100 P
b100 6"
b100 <"
b100 >#
b100 G#
b100 W#
b10100000000000010010011 j
b10100000000000010010011 @#
b10100000000000010010011 J#
b10 =
b10 h"
b10 ;#
b10 a
b10 k"
b10 3#
b1 %"
b1 ,"
b1 $"
b1 .#
1|
1H
1%
#240000
0%
#245000
0{
b101 #"
b101 ."
b101 d"
b1100 O
b1100 V#
b10 0"
b10 B"
b101 M
b101 /"
b101 ;"
b101 e
b101 '"
b101 -"
b111 n
b111 -#
b111 K#
b111 z"
b111 &#
b10 $#
b111 Z#
b1000001000000110110011 i
b1000001000000110110011 ?#
b1000001000000110110011 E#
b10 >"
b1100 K
b1100 5"
b10 <
b10 ^"
b10 q"
b10 `
b10 _"
b10 m"
1X
b101 D
b101 u"
b101 9#
b1 J
b1 i"
b1 |"
b1 6#
b101 m
b101 0#
b11100000000000100010011 j
b11100000000000100010011 @#
b11100000000000100010011 J#
b1000 W
b1000 +#
b1000 B#
b100 R
b100 ,#
b100 A#
b1100 U
b1100 =#
b1000 P
b1000 6"
b1000 <"
b1000 >#
b1000 G#
b1000 W#
1%
#250000
0%
#255000
b10000 O
b10000 V#
b11 0"
b11 B"
0}
1I
b111 #"
b111 ."
b111 d"
b1 2"
b1 D"
b100011000001000110011 i
b100011000001000110011 ?#
b100011000001000110011 E#
b11 >"
b10000 K
b10000 5"
b10 n
b10 -#
b10 K#
b10 z"
b1 y"
b10 &#
b1 %#
b11 $#
b10 Z#
b1 Y#
b110011 I"
b111 '"
b111 -"
b1 ?"
b1000 N
b1000 4"
b1011 M
b1011 /"
b1011 ;"
b1011 e
b10000 U
b10000 =#
b1100 P
b1100 6"
b1100 <"
b1100 >#
b1100 G#
b1100 W#
b1000001000000110110011 j
b1000001000000110110011 @#
b1000001000000110110011 J#
b1100 W
b1100 +#
b1100 B#
b1000 R
b1000 ,#
b1000 A#
b111 D
b111 u"
b111 9#
b10 J
b10 i"
b10 |"
b10 6#
b111 m
b111 0#
b1000 V
b1000 j"
b1000 5#
b100 Q
b100 7"
b100 ="
b100 4#
b1 Z
b1 o"
b1 s"
b1 O#
b101 \
b101 `"
b101 l"
b101 L#
18
1%
#260000
0%
#265000
b101 ("
b101 +"
b101 t
0u
1d
1c
b111 s
b111 e"
0{
b1100 #"
b1100 ."
b1100 d"
b10 2"
b10 D"
b10100 O
b10100 V#
b100 0"
b100 B"
b101 :
b101 [#
b1 o
b1 x"
b10 p
b10 w"
b111 '"
b111 -"
b10 ?"
b1100 N
b1100 4"
b1010 M
b1010 /"
b1010 ;"
b1010 e
b1 n
b1 -#
b1 K#
b1 z"
b11 y"
b1 &#
b11 %#
b100 $#
b1 Z#
b11 Y#
b110010000000000010100010011 i
b110010000000000010100010011 ?#
b110010000000000010100010011 E#
b100 >"
b10100 K
b10100 5"
b1 9
b1 t"
b1 T#
b1 X#
b101 ""
b101 Q#
b10 Z
b10 o"
b10 s"
b10 O#
b111 \
b111 `"
b111 l"
b111 L#
b1000 T
b1000 n"
b1000 N#
0|
b10 D
b10 u"
b10 9#
b1 G
b1 v"
b1 7#
b11 J
b11 i"
b11 |"
b11 6#
b10 m
b10 0#
b1100 V
b1100 j"
b1100 5#
b1000 Q
b1000 7"
b1000 ="
b1000 4#
b100011000001000110011 j
b100011000001000110011 @#
b100011000001000110011 J#
b10000 W
b10000 +#
b10000 B#
b1100 R
b1100 ,#
b1100 A#
b10100 U
b10100 =#
b10000 P
b10000 6"
b10000 <"
b10000 >#
b10000 G#
b10000 W#
1%
#270000
0%
#275000
b1100 ("
b1100 +"
b11000 O
b11000 V#
b101 0"
b101 B"
1}
1I
b11 2"
b11 D"
b0 '"
b0 -"
b1100 t
b101000000010000000100011 i
b101000000010000000100011 ?#
b101000000010000000100011 E#
b101 >"
b11000 K
b11000 5"
b1100100 n
b1100100 -#
b1100100 K#
b100 z"
b0 y"
b100 &#
b0 %#
b1010 $#
b100 Z#
b0 Y#
b11 H"
b10011 I"
b0 C
b0 )#
b0 \#
b11 ?"
b10000 N
b10000 4"
b1101 M
b1101 /"
b1101 ;"
b1101 e
0d
0c
b0 s
b0 e"
b0 o
b0 x"
b1 p
b1 w"
b111 :
b111 [#
b11000 U
b11000 =#
b10100 P
b10100 6"
b10100 <"
b10100 >#
b10100 G#
b10100 W#
b110010000000000010100010011 j
b110010000000000010100010011 @#
b110010000000000010100010011 J#
b10100 W
b10100 +#
b10100 B#
b10000 R
b10000 ,#
b10000 A#
b1 D
b1 u"
b1 9#
b11 G
b11 v"
b11 7#
b100 J
b100 i"
b100 |"
b100 6#
b1 m
b1 0#
b10000 V
b10000 j"
b10000 5#
b1100 Q
b1100 7"
b1100 ="
b1100 4#
b11 Z
b11 o"
b11 s"
b11 O#
b111 A
b111 ]"
b111 p"
b1100 \
b1100 `"
b1100 l"
b1100 L#
b1100 T
b1100 n"
b1100 N#
b10 9
b10 t"
b10 T#
b10 X#
b111 ""
b111 Q#
b1000 S
b1000 S#
1%
#280000
0%
#285000
b0 ("
b0 +"
b1100100 #"
b1100100 ."
b1100100 d"
1d
1c
b1100 s
b1100 e"
0u
b0 t
b100 2"
b100 D"
b1 l
b1 W"
b1 !#
b1 I#
1_
1}
0I
b11100 O
b11100 V#
b110 0"
b110 B"
b1100 :
b1100 [#
b1100100 '"
b1100100 -"
b1 o
b1 x"
b0 p
b0 w"
b100 ?"
b10100 N
b10100 4"
b1110100 M
b1110100 /"
b1110100 ;"
b1110100 e
b0 n
b0 -#
b0 K#
b1010 z"
b1010 &#
b0 $#
b1010 Z#
b0 H"
b10 G"
b100011 I"
b10001010000011 i
b10001010000011 ?#
b10001010000011 E#
b110 >"
b11100 K
b11100 5"
b11 9
b11 t"
b11 T#
b11 X#
b1100 ""
b1100 Q#
b1100 S
b1100 S#
b100 Z
b100 o"
b100 s"
b100 O#
b0 A
b0 ]"
b0 p"
b10000 T
b10000 n"
b10000 N#
1|
b100 D
b100 u"
b100 9#
b0 G
b0 v"
b0 7#
b1010 J
b1010 i"
b1010 |"
b1010 6#
b1100100 m
b1100100 0#
b10100 V
b10100 j"
b10100 5#
b10000 Q
b10000 7"
b10000 ="
b10000 4#
b101000000010000000100011 j
b101000000010000000100011 @#
b101000000010000000100011 J#
b11000 W
b11000 +#
b11000 B#
b10100 R
b10100 ,#
b10100 A#
b11100 U
b11100 =#
b11000 P
b11000 6"
b11000 <"
b11000 >#
b11000 G#
b11000 W#
1%
#290000
0%
#295000
b100000 O
b100000 V#
b111 0"
b111 B"
b1 7
b1 ["
b1 (#
1I
0_
1}
b0 l
b0 W"
b0 !#
b0 I#
1{
b0 #"
b0 ."
b0 d"
b101 2"
b101 D"
b100101000001100110011 i
b100101000001100110011 ?#
b100101000001100110011 E#
b111 >"
b100000 K
b100000 5"
b0 n
b0 -#
b0 K#
b0 z"
b0 &#
b101 $#
b0 Z#
b11 I"
b0 '"
b0 -"
b101 ?"
b11000 N
b11000 4"
b10100 M
b10100 /"
b10100 ;"
b10100 e
b1100100 s
b1100100 e"
b100000 U
b100000 =#
b11100 P
b11100 6"
b11100 <"
b11100 >#
b11100 G#
b11100 W#
b10001010000011 j
b10001010000011 @#
b10001010000011 J#
b11100 W
b11100 +#
b11100 B#
b11000 R
b11000 ,#
b11000 A#
1^
b1 k
b1 1#
0H
b1010 D
b1010 u"
b1010 9#
b0 J
b0 i"
b0 |"
b0 6#
b0 m
b0 0#
b11000 V
b11000 j"
b11000 5#
b10100 Q
b10100 7"
b10100 ="
b10100 4#
b1010 Z
b1010 o"
b1010 s"
b1010 O#
b1100 A
b1100 ]"
b1100 p"
b1100100 \
b1100100 `"
b1100100 l"
b1100100 L#
b10100 T
b10100 n"
b10100 N#
b100 9
b100 t"
b100 T#
b100 X#
b10000 S
b10000 S#
1%
#300000
0%
#305000
1.
12
13
b110 2"
b110 D"
b101 C
b101 )#
b101 \#
b0 7
b0 ["
b0 (#
0}
1I
b100100 O
b100100 V#
b1000 0"
b1000 B"
b1100100 :
b1100100 [#
1u
0d
0c
b0 s
b0 e"
b0 o
b0 x"
1r
1@
1?
b110 ?"
b11100 N
b11100 4"
b11000 M
b11000 /"
b11000 ;"
b11000 e
b1 n
b1 -#
b1 K#
b1 z"
b101 y"
b1 &#
b101 %#
b110 $#
b1 Z#
b101 Y#
b0 G"
b110011 I"
b11000110000010001100011 i
b11000110000010001100011 ?#
b11000110000010001100011 E#
b1000 >"
b100100 K
b100100 5"
b1010 9
b1010 t"
b1010 T#
b1010 X#
b1100100 ""
b1100100 Q#
b10100 S
b10100 S#
1]
0X
b0 Z
b0 o"
b0 s"
b0 O#
b1100100 A
b1100100 ]"
b1100100 p"
b0 \
b0 `"
b0 l"
b0 L#
b11000 T
b11000 n"
b11000 N#
b1 6
b1 g"
b1 {"
b1 <#
0^
b0 k
b0 1#
1H
b0 D
b0 u"
b0 9#
b101 J
b101 i"
b101 |"
b101 6#
b11100 V
b11100 j"
b11100 5#
b11000 Q
b11000 7"
b11000 ="
b11000 4#
b100101000001100110011 j
b100101000001100110011 @#
b100101000001100110011 J#
b100000 W
b100000 +#
b100000 B#
b11100 R
b11100 ,#
b11100 A#
b100100 U
b100100 =#
b100000 P
b100000 6"
b100000 <"
b100000 >#
b100000 G#
b100000 W#
1%
#310000
0%
