mophong_vcd/Top_module_pipeline_RISC_V_32I_tb.vcd
$date
	Fri May  8 17:56:35 2026
$end
$version
	Icarus Verilog
$end
$timescale
	1ps
$end
$scope module Top_module_pipeline_RISC_V_32I_tb $end
$var wire 32 ! value [31:0] $end
$var reg 1 " DataOrReg $end
$var reg 32 # address [31:0] $end
$var reg 32 $ check_address [31:0] $end
$var reg 1 % clk $end
$var reg 32 & instruction [31:0] $end
$var reg 1 ' rst_n $end
$var reg 1 ( start $end
$var integer 32 ) error_count [31:0] $end
$var integer 32 * flush_count [31:0] $end
$scope function ENC_B $end
$upscope $end
$scope function ENC_I $end
$upscope $end
$scope function ENC_J $end
$upscope $end
$scope function ENC_R $end
$upscope $end
$scope function ENC_S $end
$upscope $end
$scope module uut $end
$var wire 1 " DataOrReg $end
$var wire 32 + address [31:0] $end
$var wire 1 , branch_taken_E $end
$var wire 32 - check_address [31:0] $end
$var wire 1 % clk $end
$var wire 1 . flush_id_ex_total $end
$var wire 1 / flush_if_id_total $end
$var wire 32 0 instruction [31:0] $end
$var wire 1 ' rst_n $end
$var wire 1 1 stall_id_ex_total $end
$var wire 1 2 stall_if_id_total $end
$var wire 1 3 stall_pc_total $end
$var wire 1 ( start $end
$var wire 2 4 write_back_W [1:0] $end
$var wire 2 5 write_back_M [1:0] $end
$var wire 2 6 write_back_E [1:0] $end
$var wire 2 7 write_back_D [1:0] $end
$var wire 1 8 wb_regWrite $end
$var wire 5 9 wb_rd [4:0] $end
$var wire 32 : wb_data [31:0] $end
$var wire 32 ; value [31:0] $end
$var wire 1 < uses_rs2_D $end
$var wire 1 = uses_rs1_D $end
$var wire 3 > store_sel_M [2:0] $end
$var wire 3 ? store_sel_E [2:0] $end
$var wire 3 @ store_sel_D [2:0] $end
$var wire 1 A stall_pc_hazard $end
$var wire 1 B stall_if_id_hazard $end
$var wire 32 C rs2_data_M [31:0] $end
$var wire 32 D rs2_data_E [31:0] $end
$var wire 32 E rs2_data_D [31:0] $end
$var wire 5 F rs2_E [4:0] $end
$var wire 32 G rs1_data_E [31:0] $end
$var wire 32 H rs1_data_D [31:0] $end
$var wire 5 I rs1_E [4:0] $end
$var wire 32 J regfile_debug_val [31:0] $end
$var wire 1 K regWrite_E $end
$var wire 1 L regWrite_D $end
$var wire 5 M rd_E [4:0] $end
$var wire 32 N predicted_pc_next_F [31:0] $end
$var wire 1 O pred_taken_F $end
$var wire 32 P pc_target_E [31:0] $end
$var wire 32 Q pc_restore_E [31:0] $end
$var wire 32 R pc_next_F [31:0] $end
$var wire 32 S pc_F [31:0] $end
$var wire 32 T pc_E [31:0] $end
$var wire 32 U pc_D [31:0] $end
$var wire 32 V pc4_W [31:0] $end
$var wire 32 W pc4_M [31:0] $end
$var wire 32 X pc4_F [31:0] $end
$var wire 32 Y pc4_E [31:0] $end
$var wire 32 Z pc4_D [31:0] $end
$var wire 1 [ mem_regWrite_M $end
$var wire 32 \ mem_read_data_M [31:0] $end
$var wire 5 ] mem_rd_M [4:0] $end
$var wire 32 ^ mem_forward_data_M [31:0] $end
$var wire 32 _ mem_data_W [31:0] $end
$var wire 32 ` mem_alu_result_M [31:0] $end
$var wire 1 a memWrite_M $end
$var wire 1 b memWrite_E $end
$var wire 1 c memWrite_D $end
$var wire 3 d load_sel_M [2:0] $end
$var wire 3 e load_sel_E [2:0] $end
$var wire 3 f load_sel_D [2:0] $end
$var wire 1 g less_unsigned_E $end
$var wire 1 h less_signed_E $end
$var wire 32 i jump_target_E [31:0] $end
$var wire 2 j jump_E [1:0] $end
$var wire 2 k jump_D [1:0] $end
$var wire 1 l is_jump_E $end
$var wire 32 m instr_F [31:0] $end
$var wire 32 n instr_D [31:0] $end
$var wire 3 o imm_sel_E [2:0] $end
$var wire 3 p imm_sel_D [2:0] $end
$var wire 32 q imm_E [31:0] $end
$var wire 32 r imm_D [31:0] $end
$var wire 2 s forwardB [1:0] $end
$var wire 2 t forwardA [1:0] $end
$var wire 1 u flush_if_id_hazard $end
$var wire 1 v flush_id_ex_hazard $end
$var wire 32 w ex_rs2_fwd [31:0] $end
$var wire 32 x ex_rs1_fwd [31:0] $end
$var wire 1 y equal_E $end
$var wire 32 z dmem_debug_val [31:0] $end
$var wire 3 { bropcode_E [2:0] $end
$var wire 3 | bropcode_D [2:0] $end
$var wire 1 } branch_E $end
$var wire 1 ~ branch_D $end
$var wire 1 !" bpu_flush_E $end
$var wire 1 "" alu_srcB_E $end
$var wire 1 #" alu_srcB_D $end
$var wire 1 $" alu_srcA_E $end
$var wire 1 %" alu_srcA_D $end
$var wire 32 &" alu_result_W [31:0] $end
$var wire 32 '" alu_result_E [31:0] $end
$var wire 11 (" alu_ctrl_E [10:0] $end
$var wire 11 )" alu_ctrl_D [10:0] $end
$var wire 32 *" alu_b_E [31:0] $end
$var wire 32 +" alu_a_E [31:0] $end
$scope module alu $end
$var wire 32 ," a [31:0] $end
$var wire 32 -" b [31:0] $end
$var wire 1 ." zero $end
$var wire 11 /" alu_ctrl [10:0] $end
$var reg 32 0" result [31:0] $end
$upscope $end
$scope module bpu $end
$var wire 1 , branch $end
$var wire 1 % clk $end
$var wire 1 !" flush $end
$var wire 1 l jump_E $end
$var wire 32 1" pc_restore [31:0] $end
$var wire 32 2" pc_target [31:0] $end
$var wire 8 3" pht_predict_index [7:0] $end
$var wire 1 4" pht_update_en $end
$var wire 8 5" pht_update_index [7:0] $end
$var wire 1 ' rst_n $end
$var wire 1 O taken_F $end
$var wire 2 6" pht_prediction [1:0] $end
$var wire 32 7" pc_next [31:0] $end
$var wire 32 8" pc_F [31:0] $end
$var wire 32 9" pc_E [31:0] $end
$var wire 32 :" pc_D [31:0] $end
$var wire 1 ;" ex_taken $end
$var wire 32 <" btb_pc_out [31:0] $end
$var wire 1 =" btb_hit $end
$var wire 1 } branch_E $end
$var wire 32 >" actual_next_pc [31:0] $end
$var reg 8 ?" ghr [7:0] $end
$scope module btb_inst $end
$var wire 1 % clk $end
$var wire 1 l jump_E $end
$var wire 32 @" pc_target_E [31:0] $end
$var wire 1 ' rst_n $end
$var wire 32 A" pc_F [31:0] $end
$var wire 32 B" pc_E [31:0] $end
$var wire 8 C" index_F [7:0] $end
$var wire 8 D" index_E [7:0] $end
$var wire 1 } branch_E $end
$var reg 1 =" hit $end
$var reg 32 E" pc_out [31:0] $end
$var integer 32 F" i [31:0] $end
$upscope $end
$scope module pht_inst $end
$var wire 1 % clk $end
$var wire 8 G" predict_index [7:0] $end
$var wire 2 H" prediction [1:0] $end
$var wire 1 ' rst_n $end
$var wire 2 I" update_counter [1:0] $end
$var wire 1 4" update_en $end
$var wire 8 J" update_index [7:0] $end
$var wire 1 K" update_taken $end
$var integer 32 L" i [31:0] $end
$upscope $end
$upscope $end
$scope module cu $end
$var wire 3 M" funct3 [2:0] $end
$var wire 7 N" funct7 [6:0] $end
$var wire 7 O" opcode [6:0] $end
$var parameter 11 P" ALU_ADD $end
$var parameter 11 Q" ALU_AND $end
$var parameter 11 R" ALU_LUI $end
$var parameter 11 S" ALU_OR $end
$var parameter 11 T" ALU_SLL $end
$var parameter 11 U" ALU_SLT $end
$var parameter 11 V" ALU_SLTU $end
$var parameter 11 W" ALU_SRA $end
$var parameter 11 X" ALU_SRL $end
$var parameter 11 Y" ALU_SUB $end
$var parameter 11 Z" ALU_XOR $end
$var reg 11 [" alu_ctrl [10:0] $end
$var reg 1 %" alu_srcA_D $end
$var reg 1 #" alu_srcB_D $end
$var reg 1 ~ branch_D $end
$var reg 3 \" bropcode [2:0] $end
$var reg 3 ]" imm_sel [2:0] $end
$var reg 2 ^" jump_D [1:0] $end
$var reg 3 _" load_sel_D [2:0] $end
$var reg 1 c memWrite_D $end
$var reg 1 L regWrite_D $end
$var reg 3 `" store_sel_D [2:0] $end
$var reg 1 = uses_rs1_D $end
$var reg 1 < uses_rs2_D $end
$var reg 2 a" write_back_D [1:0] $end
$upscope $end
$scope module dmem $end
$var wire 1 % clk $end
$var wire 10 b" debug_addr [9:0] $end
$var wire 32 c" debug_val [31:0] $end
$var wire 32 d" raw_word [31:0] $end
$var wire 32 e" write_data [31:0] $end
$var wire 3 f" store_sel [2:0] $end
$var wire 1 a mem_write $end
$var wire 3 g" load_sel [2:0] $end
$var wire 32 h" addr [31:0] $end
$var reg 8 i" byte_to_load [7:0] $end
$var reg 16 j" half_to_load [15:0] $end
$var reg 32 k" read_data [31:0] $end
$upscope $end
$scope module ex_mem_reg $end
$var wire 1 % clk $end
$var wire 32 l" ex_alu_result [31:0] $end
$var wire 32 m" ex_rs2_data [31:0] $end
$var wire 1 n" flush $end
$var wire 1 ' rst_n $end
$var wire 2 o" ex_write_back [1:0] $end
$var wire 3 p" ex_store_sel [2:0] $end
$var wire 1 K ex_regWrite $end
$var wire 5 q" ex_rd [4:0] $end
$var wire 32 r" ex_pc_plus4 [31:0] $end
$var wire 1 b ex_memWrite $end
$var wire 3 s" ex_load_sel [2:0] $end
$var reg 32 t" mem_alu_result [31:0] $end
$var reg 3 u" mem_load_sel [2:0] $end
$var reg 1 a mem_memWrite $end
$var reg 32 v" mem_pc_plus4 [31:0] $end
$var reg 5 w" mem_rd [4:0] $end
$var reg 1 [ mem_regWrite $end
$var reg 32 x" mem_rs2_data [31:0] $end
$var reg 3 y" mem_store_sel [2:0] $end
$var reg 2 z" mem_write_back [1:0] $end
$upscope $end
$scope module fwd_unit $end
$var wire 5 {" ex_mem_rd [4:0] $end
$var wire 1 [ ex_mem_regWrite $end
$var wire 1 8 mem_wb_regWrite $end
$var wire 5 |" mem_wb_rd [4:0] $end
$var wire 5 }" id_ex_rs2 [4:0] $end
$var wire 5 ~" id_ex_rs1 [4:0] $end
$var reg 2 !# forwardA [1:0] $end
$var reg 2 "# forwardB [1:0] $end
$upscope $end
$scope module hazard_unit $end
$var wire 1 !" branch_mispredicted $end
$var wire 5 ## if_id_rs1 [4:0] $end
$var wire 5 $# if_id_rs2 [4:0] $end
$var wire 1 = if_id_uses_rs1 $end
$var wire 1 < if_id_uses_rs2 $end
$var wire 2 %# id_ex_wb_sel [1:0] $end
$var wire 5 &# id_ex_rd [4:0] $end
$var reg 1 v flush_id_ex $end
$var reg 1 u flush_if_id $end
$var reg 1 B stall_if_id $end
$var reg 1 A stall_pc $end
$upscope $end
$scope module id_ex_reg $end
$var wire 1 % clk $end
$var wire 1 . flush $end
$var wire 11 '# id_alu_ctrl [10:0] $end
$var wire 1 %" id_alu_srcA $end
$var wire 1 #" id_alu_srcB $end
$var wire 1 ~ id_branch $end
$var wire 3 (# id_bropcode [2:0] $end
$var wire 3 )# id_imm_sel [2:0] $end
$var wire 2 *# id_jump [1:0] $end
$var wire 3 +# id_load_sel [2:0] $end
$var wire 1 c id_memWrite $end
$var wire 5 ,# id_rd [4:0] $end
$var wire 1 L id_regWrite $end
$var wire 5 -# id_rs1 [4:0] $end
$var wire 5 .# id_rs2 [4:0] $end
$var wire 3 /# id_store_sel [2:0] $end
$var wire 2 0# id_write_back [1:0] $end
$var wire 1 ' rst_n $end
$var wire 1 1 stall $end
$var wire 32 1# id_rs2_data [31:0] $end
$var wire 32 2# id_rs1_data [31:0] $end
$var wire 32 3# id_pc_plus4 [31:0] $end
$var wire 32 4# id_pc [31:0] $end
$var wire 32 5# id_imm [31:0] $end
$var reg 11 6# ex_alu_ctrl [10:0] $end
$var reg 1 $" ex_alu_srcA $end
$var reg 1 "" ex_alu_srcB $end
$var reg 1 } ex_branch $end
$var reg 3 7# ex_bropcode [2:0] $end
$var reg 32 8# ex_imm [31:0] $end
$var reg 3 9# ex_imm_sel [2:0] $end
$var reg 2 :# ex_jump [1:0] $end
$var reg 3 ;# ex_load_sel [2:0] $end
$var reg 1 b ex_memWrite $end
$var reg 32 <# ex_pc [31:0] $end
$var reg 32 =# ex_pc_plus4 [31:0] $end
$var reg 5 ># ex_rd [4:0] $end
$var reg 1 K ex_regWrite $end
$var reg 5 ?# ex_rs1 [4:0] $end
$var reg 32 @# ex_rs1_data [31:0] $end
$var reg 5 A# ex_rs2 [4:0] $end
$var reg 32 B# ex_rs2_data [31:0] $end
$var reg 3 C# ex_store_sel [2:0] $end
$var reg 2 D# ex_write_back [1:0] $end
$upscope $end
$scope module if_id_reg $end
$var wire 1 % clk $end
$var wire 1 / flush $end
$var wire 32 E# if_pc_plus4 [31:0] $end
$var wire 1 ' rst_n $end
$var wire 1 2 stall $end
$var wire 32 F# if_pc [31:0] $end
$var wire 32 G# if_instr [31:0] $end
$var reg 32 H# id_instr [31:0] $end
$var reg 32 I# id_pc [31:0] $end
$var reg 32 J# id_pc_plus4 [31:0] $end
$upscope $end
$scope module imem $end
$var wire 32 K# addr_ext [31:0] $end
$var wire 1 % clk $end
$var wire 32 L# din_ext [31:0] $end
$var wire 32 M# instr [31:0] $end
$var wire 1 ' rst_n $end
$var wire 1 N# we $end
$var wire 32 O# pc [31:0] $end
$var integer 32 P# i [31:0] $end
$upscope $end
$scope module imm_gen $end
$var wire 3 Q# imm_sel [2:0] $end
$var wire 32 R# instr [31:0] $end
$var reg 32 S# imm_ext [31:0] $end
$upscope $end
$scope module mem_wb_reg $end
$var wire 1 % clk $end
$var wire 32 T# mem_alu_result [31:0] $end
$var wire 32 U# mem_mem_data [31:0] $end
$var wire 32 V# mem_pc_plus4 [31:0] $end
$var wire 5 W# mem_rd [4:0] $end
$var wire 1 [ mem_regWrite $end
$var wire 2 X# mem_write_back [1:0] $end
$var wire 1 ' rst_n $end
$var reg 32 Y# wb_alu_result [31:0] $end
$var reg 32 Z# wb_mem_data [31:0] $end
$var reg 32 [# wb_pc_plus4 [31:0] $end
$var reg 5 \# wb_rd [4:0] $end
$var reg 1 8 wb_regWrite $end
$var reg 2 ]# wb_write_back [1:0] $end
$upscope $end
$scope module pc_reg $end
$var wire 1 % clk $end
$var wire 32 ^# pc_next [31:0] $end
$var wire 1 ' rst_n $end
$var wire 1 3 stall $end
$var wire 1 ( start $end
$var reg 32 _# pc_out [31:0] $end
$upscope $end
$scope module regfile $end
$var wire 1 % clk $end
$var wire 5 `# debug_addr [4:0] $end
$var wire 5 a# rd [4:0] $end
$var wire 1 8 reg_write $end
$var wire 5 b# rs1 [4:0] $end
$var wire 5 c# rs2 [4:0] $end
$var wire 1 ' rst_n $end
$var wire 32 d# wd [31:0] $end
$var wire 32 e# rd2 [31:0] $end
$var wire 32 f# rd1 [31:0] $end
$var wire 32 g# debug_val [31:0] $end
$var integer 32 h# i [31:0] $end
$upscope $end
$upscope $end
$scope task check_equal $end
$upscope $end
$scope task check_mem_word_via_debug $end
$upscope $end
$scope task check_reg_via_debug $end
$upscope $end
$scope task load_instr $end
$upscope $end
$upscope $end
$enddefinitions $end
$comment Show the parameter values. $end
$dumpall
b100000 Z"
b10 Y"
b1000000 X"
b10000000 W"
b10000 V"
b1000 U"
b100 T"
b100000000 S"
b10000000000 R"
b1000000000 Q"
b1 P"
$end
#0
$dumpvars
b100000 h#
b0 g#
b0 f#
b0 e#
b0 d#
b0 c#
b0 b#
b0 a#
b0 `#
b0 _#
b100 ^#
b0 ]#
b0 \#
b100 [#
b0 Z#
b0 Y#
b0 X#
b0 W#
b0 V#
bx U#
b0 T#
b0 S#
b10011 R#
b0 Q#
b10000000000 P#
b0 O#
1N#
b10011 M#
b10011 L#
b0 K#
b100 J#
b0 I#
b10011 H#
b10011 G#
b0 F#
b100 E#
b0 D#
b0 C#
b0 B#
b0 A#
b0 @#
b0 ?#
b0 >#
b100 =#
b0 <#
b0 ;#
b0 :#
b0 9#
b0 8#
b0 7#
b0 6#
b0 5#
b0 4#
b100 3#
b0 2#
b0 1#
b0 0#
b10 /#
b0 .#
b0 -#
b0 ,#
b10 +#
b0 *#
b0 )#
b0 (#
b1 '#
b0 &#
b0 %#
b0 $#
b0 ##
b0 "#
b0 !#
b0 ~"
b0 }"
b0 |"
b0 {"
b0 z"
b0 y"
b0 x"
b0 w"
b0 v"
b0 u"
b0 t"
b0 s"
b100 r"
b0 q"
b0 p"
b0 o"
0n"
b0 m"
b0 l"
bx k"
bx j"
bx i"
b0 h"
b0 g"
b0 f"
b0 e"
bx d"
bx c"
b0 b"
b0 a"
b10 `"
b10 _"
b0 ^"
b0 ]"
b0 \"
b1 ["
b10011 O"
b0 N"
b0 M"
b100000000 L"
1K"
b0 J"
b1 I"
b1 H"
b0 G"
b100000000 F"
b0 E"
b0 D"
b0 C"
b0 B"
b0 A"
b0 @"
b0 ?"
b100 >"
0="
b0 <"
0;"
b0 :"
b0 9"
b0 8"
b100 7"
b1 6"
b0 5"
04"
b0 3"
b0 2"
b100 1"
b0 0"
b0 /"
1."
b0 -"
b0 ,"
b0 +"
b0 *"
b1 )"
b0 ("
b0 '"
b0 &"
0%"
0$"
1#"
0""
0!"
0~
0}
b0 |
b0 {
bx z
1y
b0 x
b0 w
0v
0u
b0 t
b0 s
b0 r
b0 q
b0 p
b0 o
b10011 n
b10011 m
0l
b0 k
b0 j
b0 i
0h
0g
b10 f
b0 e
b0 d
0c
0b
0a
b0 `
b0 _
b0 ^
b0 ]
bx \
0[
b100 Z
b100 Y
b100 X
b0 W
b100 V
b0 U
b0 T
b0 S
b100 R
b100 Q
b0 P
0O
b100 N
b0 M
1L
0K
b0 J
b0 I
b0 H
b0 G
b0 F
b0 E
b0 D
b0 C
0B
0A
b10 @
b0 ?
b0 >
1=
0<
b0 ;
b0 :
b0 9
08
b0 7
b0 6
b0 5
b0 4
13
12
11
b10011 0
0/
0.
b0 -
0,
b0 +
b0 *
b0 )
0(
0'
b10011 &
0%
b0 $
b0 #
0"
b0 !
$end
#5000
b100000000 F"
b100000000 L"
b100000 h#
b10000000000 P#
1%
#10000
0%
#15000
b10000000000 P#
b100000 h#
b100000000 L"
b100000000 F"
1%
#20000
1'
0%
#25000
bx _
bx Z#
b0 V
b0 [#
b100 W
b100 v"
b100 V#
1%
#30000
b10100000000000010010011 &
b10100000000000010010011 0
b10100000000000010010011 L#
0%
#35000
b10100000000000010010011 m
b10100000000000010010011 G#
b10100000000000010010011 M#
b100 V
b100 [#
1%
#40000
b11100000000000100010011 &
b11100000000000100010011 0
b11100000000000100010011 L#
b100 #
b100 +
b100 K#
0%
#45000
1%
#50000
b1000001000000110110011 &
b1000001000000110110011 0
b1000001000000110110011 L#
b1000 #
b1000 +
b1000 K#
0%
#55000
1%
#60000
b100011000001000110011 &
b100011000001000110011 0
b100011000001000110011 L#
b1100 #
b1100 +
b1100 K#
0%
#65000
1%
#70000
b110010000000000010100010011 &
b110010000000000010100010011 0
b110010000000000010100010011 L#
b10000 #
b10000 +
b10000 K#
0%
#75000
1%
#80000
b101000000010000000100011 &
b101000000010000000100011 0
b101000000010000000100011 L#
b10100 #
b10100 +
b10100 K#
0%
#85000
1%
#90000
b10001010000011 &
b10001010000011 0
b10001010000011 L#
b11000 #
b11000 +
b11000 K#
0%
#95000
1%
#100000
b100101000001100110011 &
b100101000001100110011 0
b100101000001100110011 L#
b11100 #
b11100 +
b11100 K#
0%
#105000
1%
#110000
b11000110000010001100011 &
b11000110000010001100011 0
b11000110000010001100011 L#
b100000 #
b100000 +
b100000 K#
0%
#115000
1%
#120000
b110001100000000001110010011 &
b110001100000000001110010011 0
b110001100000000001110010011 L#
b100100 #
b100100 +
b100100 K#
0%
#125000
1%
#130000
b10101000000000001110010011 &
b10101000000000001110010011 0
b10101000000000001110010011 L#
b101000 #
b101000 +
b101000 K#
0%
#135000
1%
#140000
b100000000000000010000010011 &
b100000000000000010000010011 0
b100000000000000010000010011 L#
b101100 #
b101100 +
b101100 K#
0%
#145000
1%
#150000
b100000000000010011101111 &
b100000000000010011101111 0
b100000000000010011101111 L#
b110000 #
b110000 +
b110000 K#
0%
#155000
1%
#160000
b100110100000000010110010011 &
b100110100000000010110010011 0
b100110100000000010110010011 L#
b110100 #
b110100 +
b110100 K#
0%
#165000
1%
#170000
b1000000011001100111 &
b1000000011001100111 0
b1000000011001100111 L#
b111000 #
b111000 +
b111000 K#
0%
#175000
1%
#180000
b101100000000000011010010011 &
b101100000000000011010010011 0
b101100000000000011010010011 L#
b111100 #
b111100 +
b111100 K#
0%
#185000
1%
#190000
b1000001001010001100011 &
b1000001001010001100011 0
b1000001001010001100011 L#
b1000000 #
b1000000 +
b1000000 K#
0%
#195000
1%
#200000
b101100000000011100010011 &
b101100000000011100010011 0
b101100000000011100010011 L#
b1000100 #
b1000100 +
b1000100 K#
0%
#205000
1%
#210000
b1011000000000011100010011 &
b1011000000000011100010011 0
b1011000000000011100010011 L#
b1001000 #
b1001000 +
b1001000 K#
0%
#215000
1%
#220000
b1101111 &
b1101111 0
b1101111 L#
b1001100 #
b1001100 +
b1001100 K#
0%
#225000
1%
#230000
03
02
01
0N#
1(
0%
#235000
b1000 R
b1000 ^#
b1 3"
b1 G"
b11100000000000100010011 m
b11100000000000100010011 G#
b11100000000000100010011 M#
b1 C"
b1000 N
b1000 7"
b101 r
b101 5#
b101 S#
b101 $#
b101 .#
b1 ,#
b101 c#
b1000 X
b1000 E#
b100 S
b100 8"
b100 A"
b100 F#
b100 O#
b100 _#
b10100000000000010010011 n
b10100000000000010010011 H#
b10100000000000010010011 R#
b10 ?
b10 p"
b10 C#
b10 e
b10 s"
b10 ;#
b1 ("
b1 /"
b1 6#
1""
1K
1%
#240000
0%
#245000
0."
b101 '"
b101 0"
b101 l"
b1100 R
b1100 ^#
b10 3"
b10 G"
b101 P
b101 2"
b101 @"
b101 i
b101 *"
b101 -"
b111 r
b111 5#
b111 S#
b111 $#
b111 .#
b10 ,#
b111 c#
b1000001000000110110011 m
b1000001000000110110011 G#
b1000001000000110110011 M#
b10 C"
b1100 N
b1100 7"
b10 >
b10 f"
b10 y"
b10 d
b10 g"
b10 u"
1[
b101 F
b101 }"
b101 A#
b1 M
b1 q"
b1 &#
b1 >#
b101 q
b101 8#
b11100000000000100010011 n
b11100000000000100010011 H#
b11100000000000100010011 R#
b1000 Z
b1000 3#
b1000 J#
b100 U
b100 :"
b100 4#
b100 I#
b1100 X
b1100 E#
b1000 S
b1000 8"
b1000 A"
b1000 F#
b1000 O#
b1000 _#
1%
#250000
0%
#255000
b10000 R
b10000 ^#
b11 3"
b11 G"
1<
1=
0#"
1L
b111 '"
b111 0"
b111 l"
b1 5"
b1 J"
b100011000001000110011 m
b100011000001000110011 G#
b100011000001000110011 M#
b11 C"
b10000 N
b10000 7"
b10 r
b10 5#
b10 S#
b10 $#
b1 ##
b10 .#
b1 -#
b11 ,#
b10 c#
b1 b#
b110011 O"
b111 *"
b111 -"
b1 D"
b1000 Q
b1000 1"
b1000 >"
b1011 P
b1011 2"
b1011 @"
b1011 i
b101 ^
b10000 X
b10000 E#
b1100 S
b1100 8"
b1100 A"
b1100 F#
b1100 O#
b1100 _#
b1000001000000110110011 n
b1000001000000110110011 H#
b1000001000000110110011 R#
b1100 Z
b1100 3#
b1100 J#
b1000 U
b1000 :"
b1000 4#
b1000 I#
b111 F
b111 }"
b111 A#
b10 M
b10 q"
b10 &#
b10 >#
b111 q
b111 8#
b1000 Y
b1000 r"
b1000 =#
b100 T
b100 9"
b100 B"
b100 <#
b1 ]
b1 w"
b1 {"
b1 W#
b101 `
b101 h"
b101 t"
b101 T#
18
1%
#260000
0%
#265000
b101 +"
b101 ,"
b101 E
b101 1#
b101 e#
b101 x
0y
1h
1g
b111 w
b111 m"
0."
b1100 '"
b1100 0"
b1100 l"
b10 5"
b10 J"
b10100 R
b10100 ^#
b100 3"
b100 G"
b101 :
b101 d#
b111 ^
b1 s
b1 "#
b10 t
b10 !#
b111 *"
b111 -"
b10 D"
b1100 Q
b1100 1"
b1100 >"
b1010 P
b1010 2"
b1010 @"
b1010 i
b1 r
b1 5#
b1 S#
b1 $#
b11 ##
b1 .#
b11 -#
b100 ,#
b1 c#
b11 b#
b110010000000000010100010011 m
b110010000000000010100010011 G#
b110010000000000010100010011 M#
b100 C"
b10100 N
b10100 7"
b1 9
b1 |"
b1 \#
b1 a#
b101 &"
b101 Y#
b10 ]
b10 w"
b10 {"
b10 W#
b111 `
b111 h"
b111 t"
b111 T#
b1000 W
b1000 v"
b1000 V#
0""
b10 F
b10 }"
b10 A#
b1 I
b1 ~"
b1 ?#
b11 M
b11 q"
b11 &#
b11 >#
b10 q
b10 8#
b1100 Y
b1100 r"
b1100 =#
b1000 T
b1000 9"
b1000 B"
b1000 <#
b100011000001000110011 n
b100011000001000110011 H#
b100011000001000110011 R#
b10000 Z
b10000 3#
b10000 J#
b1100 U
b1100 :"
b1100 4#
b1100 I#
b10100 X
b10100 E#
b10000 S
b10000 8"
b10000 A"
b10000 F#
b10000 O#
b10000 _#
1%
#270000
0%
#275000
b10001 '"
b10001 0"
b10001 l"
b101 *"
b101 -"
b1100 +"
b1100 ,"
b11000 R
b11000 ^#
b101 3"
b101 G"
1#"
0<
1=
1L
b11 5"
b11 J"
b101 w
b101 m"
0h
0g
b1100 x
b0 E
b0 1#
b0 e#
b101000000010000000100011 m
b101000000010000000100011 G#
b101000000010000000100011 M#
b101 C"
b11000 N
b11000 7"
b1100100 r
b1100100 5#
b1100100 S#
b100 $#
b0 ##
b100 .#
b0 -#
b1010 ,#
b100 c#
b0 b#
b11 N"
b10011 O"
b11 D"
b10000 Q
b10000 1"
b10000 >"
b1101 P
b1101 2"
b1101 @"
b1101 i
b1100 ^
b0 s
b0 "#
b1 t
b1 !#
b111 :
b111 d#
b11000 X
b11000 E#
b10100 S
b10100 8"
b10100 A"
b10100 F#
b10100 O#
b10100 _#
b110010000000000010100010011 n
b110010000000000010100010011 H#
b110010000000000010100010011 R#
b10100 Z
b10100 3#
b10100 J#
b10000 U
b10000 :"
b10000 4#
b10000 I#
b1 F
b1 }"
b1 A#
b11 I
b11 ~"
b11 ?#
b100 M
b100 q"
b100 &#
b100 >#
b1 q
b1 8#
b101 D
b101 B#
b10000 Y
b10000 r"
b10000 =#
b1100 T
b1100 9"
b1100 B"
b1100 <#
b11 ]
b11 w"
b11 {"
b11 W#
b111 C
b111 e"
b111 x"
b1100 `
b1100 h"
b1100 t"
b1100 T#
b1100 W
b1100 v"
b1100 V#
b10 9
b10 |"
b10 \#
b10 a#
b111 &"
b111 Y#
b1000 V
b1000 [#
1%
#280000
0%
#285000
b0 +"
b0 ,"
b1100100 '"
b1100100 0"
b1100100 l"
b0 x
1h
1g
b10001 w
b10001 m"
b100 5"
b100 J"
1<
b1 p
b1 ]"
b1 )#
b1 Q#
1c
1=
1#"
0L
b11100 R
b11100 ^#
b110 3"
b110 G"
b1100 :
b1100 d#
b10001 ^
b1100100 *"
b1100100 -"
b1 s
b1 "#
b0 t
b0 !#
b100 D"
b10100 Q
b10100 1"
b10100 >"
b1110100 P
b1110100 2"
b1110100 @"
b1110100 i
b0 r
b0 5#
b0 S#
b1010 $#
b1010 .#
b0 ,#
b1010 c#
b0 N"
b10 M"
b100011 O"
b10001010000011 m
b10001010000011 G#
b10001010000011 M#
b110 C"
b11100 N
b11100 7"
b11 9
b11 |"
b11 \#
b11 a#
b1100 &"
b1100 Y#
b1100 V
b1100 [#
b100 ]
b100 w"
b100 {"
b100 W#
b101 C
b101 e"
b101 x"
b10001 `
b10001 h"
b10001 t"
b10001 T#
b10000 W
b10000 v"
b10000 V#
1""
b100 F
b100 }"
b100 A#
b0 I
b0 ~"
b0 ?#
b1010 M
b1010 q"
b1010 &#
b1010 >#
b1100100 q
b1100100 8#
b0 D
b0 B#
b10100 Y
b10100 r"
b10100 =#
b10000 T
b10000 9"
b10000 B"
b10000 <#
b101000000010000000100011 n
b101000000010000000100011 H#
b101000000010000000100011 R#
b11000 Z
b11000 3#
b11000 J#
b10100 U
b10100 :"
b10100 4#
b10100 I#
b11100 X
b11100 E#
b11000 S
b11000 8"
b11000 A"
b11000 F#
b11000 O#
b11000 _#
1%
#290000
0%
#295000
b100000 R
b100000 ^#
b111 3"
b111 G"
b1 7
b1 a"
b1 0#
1L
0<
1=
0c
1#"
b0 p
b0 ]"
b0 )#
b0 Q#
1."
b0 '"
b0 0"
b0 l"
b101 5"
b101 J"
b1100100 w
b1100100 m"
b100101000001100110011 m
b100101000001100110011 G#
b100101000001100110011 M#
b111 C"
b100000 N
b100000 7"
b0 r
b0 5#
b0 S#
b0 $#
b0 .#
b101 ,#
b0 c#
b11 O"
b0 *"
b0 -"
b101 D"
b11000 Q
b11000 1"
b11000 >"
b10100 P
b10100 2"
b10100 @"
b10100 i
b1100100 ^
b10001 :
b10001 d#
b100000 X
b100000 E#
b11100 S
b11100 8"
b11100 A"
b11100 F#
b11100 O#
b11100 _#
b10001010000011 n
b10001010000011 H#
b10001010000011 R#
b11100 Z
b11100 3#
b11100 J#
b11000 U
b11000 :"
b11000 4#
b11000 I#
1b
b1 o
b1 9#
0K
b1010 F
b1010 }"
b1010 A#
b0 M
b0 q"
b0 &#
b0 >#
b0 q
b0 8#
b11000 Y
b11000 r"
b11000 =#
b10100 T
b10100 9"
b10100 B"
b10100 <#
b1010 ]
b1010 w"
b1010 {"
b1010 W#
b10001 C
b10001 e"
b10001 x"
b1100100 `
b1100100 h"
b1100100 t"
b1100100 T#
b10100 W
b10100 v"
b10100 V#
b100 9
b100 |"
b100 \#
b100 a#
b10001 &"
b10001 Y#
b10000 V
b10000 [#
1%
#300000
0%
