mophong_vcd/Top_module_pipeline_RISC_V_32I_tb.vcd
$date
	Mon May 11 14:44:21 2026
$end
$version
	Icarus Verilog
$end
$timescale
	1ps
$end
$scope module Top_module_pipeline_RISC_V_32I_tb $end
$var wire 32 ! value [31:0] $end
$var reg 1 " DataOrReg $end
$var reg 32 # address [31:0] $end
$var reg 32 $ check_address [31:0] $end
$var reg 1 % clk $end
$var reg 32 & instruction [31:0] $end
$var reg 1 ' rst_n $end
$var reg 1 ( start $end
$var integer 32 ) error_count [31:0] $end
$var integer 32 * flush_count [31:0] $end
$scope function ENC_B $end
$upscope $end
$scope function ENC_I $end
$upscope $end
$scope function ENC_J $end
$upscope $end
$scope function ENC_R $end
$upscope $end
$scope function ENC_S $end
$upscope $end
$scope function ENC_U $end
$upscope $end
$scope module uut $end
$var wire 1 " DataOrReg $end
$var wire 32 + address [31:0] $end
$var wire 1 , branch_taken_E $end
$var wire 32 - check_address [31:0] $end
$var wire 1 % clk $end
$var wire 1 . flush_id_ex_total $end
$var wire 1 / flush_if_id_total $end
$var wire 32 0 instruction [31:0] $end
$var wire 1 ' rst_n $end
$var wire 1 1 stall_id_ex_total $end
$var wire 1 2 stall_if_id_total $end
$var wire 1 3 stall_pc_total $end
$var wire 1 ( start $end
$var wire 2 4 write_back_W [1:0] $end
$var wire 2 5 write_back_M [1:0] $end
$var wire 2 6 write_back_E [1:0] $end
$var wire 2 7 write_back_D [1:0] $end
$var wire 1 8 wb_regWrite $end
$var wire 5 9 wb_rd [4:0] $end
$var wire 32 : wb_data [31:0] $end
$var wire 32 ; value [31:0] $end
$var wire 1 < uses_rs2_D $end
$var wire 1 = uses_rs1_D $end
$var wire 3 > store_sel_M [2:0] $end
$var wire 3 ? store_sel_E [2:0] $end
$var wire 3 @ store_sel_D [2:0] $end
$var wire 1 A stall_pc_hazard $end
$var wire 1 B stall_if_id_hazard $end
$var wire 32 C rs2_data_M [31:0] $end
$var wire 32 D rs2_data_E [31:0] $end
$var wire 32 E rs2_data_D [31:0] $end
$var wire 5 F rs2_E [4:0] $end
$var wire 32 G rs1_data_E [31:0] $end
$var wire 32 H rs1_data_D [31:0] $end
$var wire 5 I rs1_E [4:0] $end
$var wire 32 J regfile_debug_val [31:0] $end
$var wire 1 K regWrite_E $end
$var wire 1 L regWrite_D $end
$var wire 5 M rd_E [4:0] $end
$var wire 32 N predicted_pc_next_F [31:0] $end
$var wire 1 O pred_taken_F $end
$var wire 32 P pc_target_E [31:0] $end
$var wire 32 Q pc_restore_E [31:0] $end
$var wire 32 R pc_next_F [31:0] $end
$var wire 32 S pc_F [31:0] $end
$var wire 32 T pc_E [31:0] $end
$var wire 32 U pc_D [31:0] $end
$var wire 32 V pc4_W [31:0] $end
$var wire 32 W pc4_M [31:0] $end
$var wire 32 X pc4_F [31:0] $end
$var wire 32 Y pc4_E [31:0] $end
$var wire 32 Z pc4_D [31:0] $end
$var wire 1 [ mem_regWrite_M $end
$var wire 32 \ mem_read_data_M [31:0] $end
$var wire 5 ] mem_rd_M [4:0] $end
$var wire 32 ^ mem_forward_data_M [31:0] $end
$var wire 32 _ mem_data_W [31:0] $end
$var wire 32 ` mem_alu_result_M [31:0] $end
$var wire 1 a memWrite_M $end
$var wire 1 b memWrite_E $end
$var wire 1 c memWrite_D $end
$var wire 3 d load_sel_M [2:0] $end
$var wire 3 e load_sel_E [2:0] $end
$var wire 3 f load_sel_D [2:0] $end
$var wire 1 g less_unsigned_E $end
$var wire 1 h less_signed_E $end
$var wire 32 i jump_target_E [31:0] $end
$var wire 2 j jump_E [1:0] $end
$var wire 2 k jump_D [1:0] $end
$var wire 1 l is_jump_E $end
$var wire 32 m instr_F [31:0] $end
$var wire 32 n instr_D [31:0] $end
$var wire 3 o imm_sel_E [2:0] $end
$var wire 3 p imm_sel_D [2:0] $end
$var wire 32 q imm_E [31:0] $end
$var wire 32 r imm_D [31:0] $end
$var wire 2 s forwardB [1:0] $end
$var wire 2 t forwardA [1:0] $end
$var wire 1 u flush_if_id_hazard $end
$var wire 1 v flush_id_ex_hazard $end
$var wire 32 w ex_rs2_fwd [31:0] $end
$var wire 32 x ex_rs1_fwd [31:0] $end
$var wire 1 y equal_E $end
$var wire 32 z dmem_debug_val [31:0] $end
$var wire 3 { bropcode_E [2:0] $end
$var wire 3 | bropcode_D [2:0] $end
$var wire 1 } branch_E $end
$var wire 1 ~ branch_D $end
$var wire 1 !" bpu_flush_E $end
$var wire 1 "" alu_srcB_E $end
$var wire 1 #" alu_srcB_D $end
$var wire 1 $" alu_srcA_E $end
$var wire 1 %" alu_srcA_D $end
$var wire 32 &" alu_result_W [31:0] $end
$var wire 32 '" alu_result_E [31:0] $end
$var wire 11 (" alu_ctrl_E [10:0] $end
$var wire 11 )" alu_ctrl_D [10:0] $end
$var wire 32 *" alu_b_E [31:0] $end
$var wire 32 +" alu_a_E [31:0] $end
$scope module alu $end
$var wire 32 ," a [31:0] $end
$var wire 32 -" b [31:0] $end
$var wire 1 ." zero $end
$var wire 11 /" alu_ctrl [10:0] $end
$var reg 32 0" result [31:0] $end
$upscope $end
$scope module bpu $end
$var wire 1 , branch $end
$var wire 1 % clk $end
$var wire 1 !" flush $end
$var wire 1 l jump_E $end
$var wire 32 1" pc_restore [31:0] $end
$var wire 32 2" pc_target [31:0] $end
$var wire 8 3" pht_predict_index [7:0] $end
$var wire 1 4" pht_update_en $end
$var wire 8 5" pht_update_index [7:0] $end
$var wire 1 ' rst_n $end
$var wire 1 O taken_F $end
$var wire 2 6" pht_prediction [1:0] $end
$var wire 32 7" pc_next [31:0] $end
$var wire 32 8" pc_F [31:0] $end
$var wire 32 9" pc_E [31:0] $end
$var wire 32 :" pc_D [31:0] $end
$var wire 1 ;" ex_taken $end
$var wire 32 <" btb_pc_out [31:0] $end
$var wire 1 =" btb_hit $end
$var wire 1 } branch_E $end
$var wire 32 >" actual_next_pc [31:0] $end
$var reg 8 ?" ghr [7:0] $end
$scope module btb_inst $end
$var wire 1 % clk $end
$var wire 1 l jump_E $end
$var wire 32 @" pc_target_E [31:0] $end
$var wire 1 ' rst_n $end
$var wire 32 A" pc_F [31:0] $end
$var wire 32 B" pc_E [31:0] $end
$var wire 8 C" index_F [7:0] $end
$var wire 8 D" index_E [7:0] $end
$var wire 1 } branch_E $end
$var reg 1 =" hit $end
$var reg 32 E" pc_out [31:0] $end
$var integer 32 F" i [31:0] $end
$upscope $end
$scope module pht_inst $end
$var wire 1 % clk $end
$var wire 8 G" predict_index [7:0] $end
$var wire 2 H" prediction [1:0] $end
$var wire 1 ' rst_n $end
$var wire 2 I" update_counter [1:0] $end
$var wire 1 4" update_en $end
$var wire 8 J" update_index [7:0] $end
$var wire 1 K" update_taken $end
$var integer 32 L" i [31:0] $end
$upscope $end
$upscope $end
$scope module cu $end
$var wire 3 M" funct3 [2:0] $end
$var wire 7 N" funct7 [6:0] $end
$var wire 7 O" opcode [6:0] $end
$var parameter 11 P" ALU_ADD $end
$var parameter 11 Q" ALU_AND $end
$var parameter 11 R" ALU_LUI $end
$var parameter 11 S" ALU_OR $end
$var parameter 11 T" ALU_SLL $end
$var parameter 11 U" ALU_SLT $end
$var parameter 11 V" ALU_SLTU $end
$var parameter 11 W" ALU_SRA $end
$var parameter 11 X" ALU_SRL $end
$var parameter 11 Y" ALU_SUB $end
$var parameter 11 Z" ALU_XOR $end
$var reg 11 [" alu_ctrl [10:0] $end
$var reg 1 %" alu_srcA_D $end
$var reg 1 #" alu_srcB_D $end
$var reg 1 ~ branch_D $end
$var reg 3 \" bropcode [2:0] $end
$var reg 3 ]" imm_sel [2:0] $end
$var reg 2 ^" jump_D [1:0] $end
$var reg 3 _" load_sel_D [2:0] $end
$var reg 1 c memWrite_D $end
$var reg 1 L regWrite_D $end
$var reg 3 `" store_sel_D [2:0] $end
$var reg 1 = uses_rs1_D $end
$var reg 1 < uses_rs2_D $end
$var reg 2 a" write_back_D [1:0] $end
$upscope $end
$scope module dmem $end
$var wire 1 % clk $end
$var wire 10 b" debug_addr [9:0] $end
$var wire 32 c" debug_val [31:0] $end
$var wire 32 d" raw_word [31:0] $end
$var wire 32 e" write_data [31:0] $end
$var wire 3 f" store_sel [2:0] $end
$var wire 1 a mem_write $end
$var wire 3 g" load_sel [2:0] $end
$var wire 32 h" addr [31:0] $end
$var reg 8 i" byte_to_load [7:0] $end
$var reg 16 j" half_to_load [15:0] $end
$var reg 32 k" read_data [31:0] $end
$upscope $end
$scope module ex_mem_reg $end
$var wire 1 % clk $end
$var wire 32 l" ex_alu_result [31:0] $end
$var wire 32 m" ex_rs2_data [31:0] $end
$var wire 1 n" flush $end
$var wire 1 ' rst_n $end
$var wire 2 o" ex_write_back [1:0] $end
$var wire 3 p" ex_store_sel [2:0] $end
$var wire 1 K ex_regWrite $end
$var wire 5 q" ex_rd [4:0] $end
$var wire 32 r" ex_pc_plus4 [31:0] $end
$var wire 1 b ex_memWrite $end
$var wire 3 s" ex_load_sel [2:0] $end
$var reg 32 t" mem_alu_result [31:0] $end
$var reg 3 u" mem_load_sel [2:0] $end
$var reg 1 a mem_memWrite $end
$var reg 32 v" mem_pc_plus4 [31:0] $end
$var reg 5 w" mem_rd [4:0] $end
$var reg 1 [ mem_regWrite $end
$var reg 32 x" mem_rs2_data [31:0] $end
$var reg 3 y" mem_store_sel [2:0] $end
$var reg 2 z" mem_write_back [1:0] $end
$var reg 32 {" next_mem_alu_result [31:0] $end
$var reg 3 |" next_mem_load_sel [2:0] $end
$var reg 1 }" next_mem_memWrite $end
$var reg 32 ~" next_mem_pc_plus4 [31:0] $end
$var reg 5 !# next_mem_rd [4:0] $end
$var reg 1 "# next_mem_regWrite $end
$var reg 32 ## next_mem_rs2_data [31:0] $end
$var reg 3 $# next_mem_store_sel [2:0] $end
$var reg 2 %# next_mem_write_back [1:0] $end
$upscope $end
$scope module fwd_unit $end
$var wire 5 &# ex_mem_rd [4:0] $end
$var wire 1 [ ex_mem_regWrite $end
$var wire 1 8 mem_wb_regWrite $end
$var wire 5 '# mem_wb_rd [4:0] $end
$var wire 5 (# id_ex_rs2 [4:0] $end
$var wire 5 )# id_ex_rs1 [4:0] $end
$var reg 2 *# forwardA [1:0] $end
$var reg 2 +# forwardB [1:0] $end
$upscope $end
$scope module hazard_unit $end
$var wire 1 !" branch_mispredicted $end
$var wire 5 ,# if_id_rs1 [4:0] $end
$var wire 5 -# if_id_rs2 [4:0] $end
$var wire 1 = if_id_uses_rs1 $end
$var wire 1 < if_id_uses_rs2 $end
$var wire 2 .# id_ex_wb_sel [1:0] $end
$var wire 5 /# id_ex_rd [4:0] $end
$var reg 1 v flush_id_ex $end
$var reg 1 u flush_if_id $end
$var reg 1 B stall_if_id $end
$var reg 1 A stall_pc $end
$upscope $end
$scope module id_ex_reg $end
$var wire 1 % clk $end
$var wire 1 . flush $end
$var wire 11 0# id_alu_ctrl [10:0] $end
$var wire 1 %" id_alu_srcA $end
$var wire 1 #" id_alu_srcB $end
$var wire 1 ~ id_branch $end
$var wire 3 1# id_bropcode [2:0] $end
$var wire 3 2# id_imm_sel [2:0] $end
$var wire 2 3# id_jump [1:0] $end
$var wire 3 4# id_load_sel [2:0] $end
$var wire 1 c id_memWrite $end
$var wire 5 5# id_rd [4:0] $end
$var wire 1 L id_regWrite $end
$var wire 5 6# id_rs1 [4:0] $end
$var wire 5 7# id_rs2 [4:0] $end
$var wire 3 8# id_store_sel [2:0] $end
$var wire 2 9# id_write_back [1:0] $end
$var wire 1 ' rst_n $end
$var wire 1 1 stall $end
$var wire 32 :# id_rs2_data [31:0] $end
$var wire 32 ;# id_rs1_data [31:0] $end
$var wire 32 <# id_pc_plus4 [31:0] $end
$var wire 32 =# id_pc [31:0] $end
$var wire 32 ># id_imm [31:0] $end
$var reg 11 ?# ex_alu_ctrl [10:0] $end
$var reg 1 $" ex_alu_srcA $end
$var reg 1 "" ex_alu_srcB $end
$var reg 1 } ex_branch $end
$var reg 3 @# ex_bropcode [2:0] $end
$var reg 32 A# ex_imm [31:0] $end
$var reg 3 B# ex_imm_sel [2:0] $end
$var reg 2 C# ex_jump [1:0] $end
$var reg 3 D# ex_load_sel [2:0] $end
$var reg 1 b ex_memWrite $end
$var reg 32 E# ex_pc [31:0] $end
$var reg 32 F# ex_pc_plus4 [31:0] $end
$var reg 5 G# ex_rd [4:0] $end
$var reg 1 K ex_regWrite $end
$var reg 5 H# ex_rs1 [4:0] $end
$var reg 32 I# ex_rs1_data [31:0] $end
$var reg 5 J# ex_rs2 [4:0] $end
$var reg 32 K# ex_rs2_data [31:0] $end
$var reg 3 L# ex_store_sel [2:0] $end
$var reg 2 M# ex_write_back [1:0] $end
$var reg 11 N# next_ex_alu_ctrl [10:0] $end
$var reg 1 O# next_ex_alu_srcA $end
$var reg 1 P# next_ex_alu_srcB $end
$var reg 1 Q# next_ex_branch $end
$var reg 3 R# next_ex_bropcode [2:0] $end
$var reg 32 S# next_ex_imm [31:0] $end
$var reg 3 T# next_ex_imm_sel [2:0] $end
$var reg 2 U# next_ex_jump [1:0] $end
$var reg 3 V# next_ex_load_sel [2:0] $end
$var reg 1 W# next_ex_memWrite $end
$var reg 32 X# next_ex_pc [31:0] $end
$var reg 32 Y# next_ex_pc_plus4 [31:0] $end
$var reg 5 Z# next_ex_rd [4:0] $end
$var reg 1 [# next_ex_regWrite $end
$var reg 5 \# next_ex_rs1 [4:0] $end
$var reg 32 ]# next_ex_rs1_data [31:0] $end
$var reg 5 ^# next_ex_rs2 [4:0] $end
$var reg 32 _# next_ex_rs2_data [31:0] $end
$var reg 3 `# next_ex_store_sel [2:0] $end
$var reg 2 a# next_ex_write_back [1:0] $end
$upscope $end
$scope module if_id_reg $end
$var wire 1 % clk $end
$var wire 1 / flush $end
$var wire 32 b# if_pc_plus4 [31:0] $end
$var wire 1 ' rst_n $end
$var wire 1 2 stall $end
$var wire 32 c# if_pc [31:0] $end
$var wire 32 d# if_instr [31:0] $end
$var reg 32 e# id_instr [31:0] $end
$var reg 32 f# id_pc [31:0] $end
$var reg 32 g# id_pc_plus4 [31:0] $end
$var reg 32 h# next_id_instr [31:0] $end
$var reg 32 i# next_id_pc [31:0] $end
$var reg 32 j# next_id_pc_plus4 [31:0] $end
$upscope $end
$scope module imem $end
$var wire 32 k# addr_ext [31:0] $end
$var wire 1 % clk $end
$var wire 32 l# din_ext [31:0] $end
$var wire 32 m# instr [31:0] $end
$var wire 1 ' rst_n $end
$var wire 1 n# we $end
$var wire 32 o# pc [31:0] $end
$var integer 32 p# i [31:0] $end
$upscope $end
$scope module imm_gen $end
$var wire 3 q# imm_sel [2:0] $end
$var wire 32 r# instr [31:0] $end
$var reg 32 s# imm_ext [31:0] $end
$upscope $end
$scope module mem_wb_reg $end
$var wire 1 % clk $end
$var wire 32 t# mem_alu_result [31:0] $end
$var wire 32 u# mem_mem_data [31:0] $end
$var wire 32 v# mem_pc_plus4 [31:0] $end
$var wire 5 w# mem_rd [4:0] $end
$var wire 1 [ mem_regWrite $end
$var wire 2 x# mem_write_back [1:0] $end
$var wire 1 ' rst_n $end
$var reg 32 y# next_wb_alu_result [31:0] $end
$var reg 32 z# next_wb_mem_data [31:0] $end
$var reg 32 {# next_wb_pc_plus4 [31:0] $end
$var reg 5 |# next_wb_rd [4:0] $end
$var reg 1 }# next_wb_regWrite $end
$var reg 2 ~# next_wb_write_back [1:0] $end
$var reg 32 !$ wb_alu_result [31:0] $end
$var reg 32 "$ wb_mem_data [31:0] $end
$var reg 32 #$ wb_pc_plus4 [31:0] $end
$var reg 5 $$ wb_rd [4:0] $end
$var reg 1 8 wb_regWrite $end
$var reg 2 %$ wb_write_back [1:0] $end
$upscope $end
$scope module pc_reg $end
$var wire 1 % clk $end
$var wire 32 &$ pc_next [31:0] $end
$var wire 1 ' rst_n $end
$var wire 1 3 stall $end
$var wire 1 ( start $end
$var reg 32 '$ next_pc_val [31:0] $end
$var reg 32 ($ pc_out [31:0] $end
$upscope $end
$scope module regfile $end
$var wire 1 % clk $end
$var wire 5 )$ debug_addr [4:0] $end
$var wire 5 *$ rd [4:0] $end
$var wire 1 8 reg_write $end
$var wire 5 +$ rs1 [4:0] $end
$var wire 5 ,$ rs2 [4:0] $end
$var wire 1 ' rst_n $end
$var wire 32 -$ wd [31:0] $end
$var wire 32 .$ rd2 [31:0] $end
$var wire 32 /$ rd1 [31:0] $end
$var wire 32 0$ debug_val [31:0] $end
$var integer 32 1$ i [31:0] $end
$upscope $end
$upscope $end
$scope task check_equal $end
$upscope $end
$scope task check_mem_word_via_debug $end
$upscope $end
$scope task check_reg_via_debug $end
$upscope $end
$scope task load_instr $end
$upscope $end
$upscope $end
$enddefinitions $end
$comment Show the parameter values. $end
$dumpall
b100000 Z"
b10 Y"
b1000000 X"
b10000000 W"
b10000 V"
b1000 U"
b100 T"
b100000000 S"
b10000000000 R"
b1000000000 Q"
b1 P"
$end
#0
$dumpvars
b100000 1$
b0 0$
b0 /$
b0 .$
b0 -$
b0 ,$
b0 +$
b0 *$
b0 )$
b0 ($
b0 '$
b100 &$
b0 %$
b0 $$
b100 #$
b0 "$
b0 !$
b0 ~#
0}#
b0 |#
b0 {#
bx z#
b0 y#
b0 x#
b0 w#
b0 v#
bx u#
b0 t#
b0 s#
b10011 r#
b0 q#
b1111111111 p#
b0 o#
1n#
b10011 m#
b10011 l#
b0 k#
b100 j#
b0 i#
b10011 h#
b100 g#
b0 f#
b10011 e#
b10011 d#
b0 c#
b100 b#
b0 a#
b0 `#
b0 _#
b0 ^#
b0 ]#
b0 \#
0[#
b0 Z#
b100 Y#
b0 X#
0W#
b0 V#
b0 U#
b0 T#
b0 S#
b0 R#
0Q#
0P#
0O#
b0 N#
b0 M#
b0 L#
b0 K#
b0 J#
b0 I#
b0 H#
b0 G#
b100 F#
b0 E#
b0 D#
b0 C#
b0 B#
b0 A#
b0 @#
b0 ?#
b0 >#
b0 =#
b100 <#
b0 ;#
b0 :#
b0 9#
b10 8#
b0 7#
b0 6#
b0 5#
b10 4#
b0 3#
b0 2#
b0 1#
b1 0#
b0 /#
b0 .#
b0 -#
b0 ,#
b0 +#
b0 *#
b0 )#
b0 (#
b0 '#
b0 &#
b0 %#
b0 $#
b0 ##
0"#
b0 !#
b100 ~"
0}"
b0 |"
b0 {"
b0 z"
b0 y"
b0 x"
b0 w"
b0 v"
b0 u"
b0 t"
b0 s"
b100 r"
b0 q"
b0 p"
b0 o"
0n"
b0 m"
b0 l"
bx k"
bx j"
bx i"
b0 h"
b0 g"
b0 f"
b0 e"
bx d"
bx c"
b0 b"
b0 a"
b10 `"
b10 _"
b0 ^"
b0 ]"
b0 \"
b1 ["
b10011 O"
b0 N"
b0 M"
b100000000 L"
1K"
b0 J"
b1 I"
b1 H"
b0 G"
b100000000 F"
b0 E"
b0 D"
b0 C"
b0 B"
b0 A"
b0 @"
b0 ?"
b100 >"
0="
b0 <"
0;"
b0 :"
b0 9"
b0 8"
b100 7"
b1 6"
b0 5"
04"
b0 3"
b0 2"
b100 1"
b0 0"
b0 /"
1."
b0 -"
b0 ,"
b0 +"
b0 *"
b1 )"
b0 ("
b0 '"
b0 &"
0%"
0$"
1#"
0""
0!"
0~
0}
b0 |
b0 {
bx z
1y
b0 x
b0 w
0v
0u
b0 t
b0 s
b0 r
b0 q
b0 p
b0 o
b10011 n
b10011 m
0l
b0 k
b0 j
b0 i
0h
0g
b10 f
b0 e
b0 d
0c
0b
0a
b0 `
b0 _
b0 ^
b0 ]
bx \
0[
b100 Z
b100 Y
b100 X
b0 W
b100 V
b0 U
b0 T
b0 S
b100 R
b100 Q
b0 P
0O
b100 N
b0 M
1L
0K
b0 J
b0 I
b0 H
b0 G
b0 F
b0 E
b0 D
b0 C
0B
0A
b10 @
b0 ?
b0 >
1=
0<
b0 ;
b0 :
b0 9
08
b0 7
b0 6
b0 5
b0 4
13
12
11
b10011 0
0/
0.
b0 -
0,
b0 +
b0 *
b0 )
0(
0'
b10011 &
0%
b0 $
b0 #
0"
b0 !
$end
#5000
b100000000 F"
b100000000 L"
b100000 1$
b1111111111 p#
1%
#10000
0%
#15000
b1111111111 p#
b100000 1$
b100000000 L"
b100000000 F"
1%
#20000
1'
0%
#25000
b100 {#
bx _
bx "$
b0 V
b0 #$
b100 W
b100 v"
b100 v#
1%
#30000
b10100000000000010010011 &
b10100000000000010010011 0
b10100000000000010010011 l#
0%
#35000
b10100000000000010010011 m
b10100000000000010010011 d#
b10100000000000010010011 m#
b100 V
b100 #$
1%
#40000
b11100000000000100010011 &
b11100000000000100010011 0
b11100000000000100010011 l#
b100 #
b100 +
b100 k#
0%
#45000
1%
#50000
b1000001000000110110011 &
b1000001000000110110011 0
b1000001000000110110011 l#
b1000 #
b1000 +
b1000 k#
0%
#55000
1%
#60000
b100011000001000110011 &
b100011000001000110011 0
b100011000001000110011 l#
b1100 #
b1100 +
b1100 k#
0%
#65000
1%
#70000
b110010000000000010100010011 &
b110010000000000010100010011 0
b110010000000000010100010011 l#
b10000 #
b10000 +
b10000 k#
0%
#75000
1%
#80000
b101000000010000000100011 &
b101000000010000000100011 0
b101000000010000000100011 l#
b10100 #
b10100 +
b10100 k#
0%
#85000
1%
#90000
b10001010000011 &
b10001010000011 0
b10001010000011 l#
b11000 #
b11000 +
b11000 k#
0%
#95000
1%
#100000
b100101000001100110011 &
b100101000001100110011 0
b100101000001100110011 l#
b11100 #
b11100 +
b11100 k#
0%
#105000
1%
#110000
b11000110000010001100011 &
b11000110000010001100011 0
b11000110000010001100011 l#
b100000 #
b100000 +
b100000 k#
0%
#115000
1%
#120000
b110001100000000000000010011 &
b110001100000000000000010011 0
b110001100000000000000010011 l#
b100100 #
b100100 +
b100100 k#
0%
#125000
1%
#130000
b100000000000000010000010011 &
b100000000000000010000010011 0
b100000000000000010000010011 l#
b101000 #
b101000 +
b101000 k#
0%
#135000
1%
#140000
b100000000000010011101111 &
b100000000000010011101111 0
b100000000000010011101111 l#
b101100 #
b101100 +
b101100 k#
0%
#145000
1%
#150000
b100110100000000010110010011 &
b100110100000000010110010011 0
b100110100000000010110010011 l#
b110000 #
b110000 +
b110000 k#
0%
#155000
1%
#160000
b1000000011001100111 &
b1000000011001100111 0
b1000000011001100111 l#
b110100 #
b110100 +
b110100 k#
0%
#165000
1%
#170000
b101100000000000011010010011 &
b101100000000000011010010011 0
b101100000000000011010010011 l#
b111000 #
b111000 +
b111000 k#
0%
#175000
1%
#180000
b111100 #
b111100 +
b111100 k#
0%
#185000
1%
#190000
b1000001001010001100011 &
b1000001001010001100011 0
b1000001001010001100011 l#
b1000000 #
b1000000 +
b1000000 k#
0%
#195000
1%
#200000
b101100000000011100010011 &
b101100000000011100010011 0
b101100000000011100010011 l#
b1000100 #
b1000100 +
b1000100 k#
0%
#205000
1%
#210000
b10010001101000101011110110111 &
b10010001101000101011110110111 0
b10010001101000101011110110111 l#
b1001000 #
b1001000 +
b1001000 k#
0%
#215000
1%
#220000
b1000000000000100000010111 &
b1000000000000100000010111 0
b1000000000000100000010111 l#
b1001100 #
b1001100 +
b1001100 k#
0%
#225000
1%
#230000
b111100001100100010010011 &
b111100001100100010010011 0
b111100001100100010010011 l#
b1010000 #
b1010000 +
b1010000 k#
0%
#235000
1%
#240000
b100000001110100100010011 &
b100000001110100100010011 0
b100000001110100100010011 l#
b1010100 #
b1010100 +
b1010100 k#
0%
#245000
1%
#250000
b10000001111100110010011 &
b10000001111100110010011 0
b10000001111100110010011 l#
b1011000 #
b1011000 +
b1011000 k#
0%
#255000
1%
#260000
b1000001001101000010011 &
b1000001001101000010011 0
b1000001001101000010011 l#
b1011100 #
b1011100 +
b1011100 k#
0%
#265000
1%
#270000
b110100101101010010011 &
b110100101101010010011 0
b110100101101010010011 l#
b1100000 #
b1100000 +
b1100000 k#
0%
#275000
1%
#280000
b11111111100000000000101100010011 &
b11111111100000000000101100010011 0
b11111111100000000000101100010011 l#
b1100100 #
b1100100 +
b1100100 k#
0%
#285000
1%
#290000
b1000000000110110101101110010011 &
b1000000000110110101101110010011 0
b1000000000110110101101110010011 l#
b1101000 #
b1101000 +
b1101000 k#
0%
#295000
1%
#300000
b101000001010110000010011 &
b101000001010110000010011 0
b101000001010110000010011 l#
b1101100 #
b1101100 +
b1101100 k#
0%
#305000
1%
#310000
b101010110011110010010011 &
b101010110011110010010011 0
b101010110011110010010011 l#
b1110000 #
b1110000 +
b1110000 k#
0%
#315000
1%
#320000
b1000000000100011000110100110011 &
b1000000000100011000110100110011 0
b1000000000100011000110100110011 l#
b1110100 #
b1110100 +
b1110100 k#
0%
#325000
1%
#330000
b1100000000110110010011 &
b1100000000110110010011 0
b1100000000110110010011 l#
b1111000 #
b1111000 +
b1111000 k#
0%
#335000
1%
#340000
b1101100001001110110110011 &
b1101100001001110110110011 0
b1101100001001110110110011 l#
b1111100 #
b1111100 +
b1111100 k#
0%
#345000
1%
#350000
b110110010111000110011 &
b110110010111000110011 0
b110110010111000110011 l#
b10000000 #
b10000000 +
b10000000 k#
0%
#355000
1%
#360000
b110110011111010110011 &
b110110011111010110011 0
b110110011111010110011 l#
b10000100 #
b10000100 +
b10000100 k#
0%
#365000
1%
#370000
b1000001100111100110011 &
b1000001100111100110011 0
b1000001100111100110011 l#
b10001000 #
b10001000 +
b10001000 k#
0%
#375000
1%
#380000
b100000000111110010011 &
b100000000111110010011 0
b100000000111110010011 l#
b10001100 #
b10001100 +
b10001100 k#
0%
#385000
1%
#390000
b1111110100101111110110011 &
b1111110100101111110110011 0
b1111110100101111110110011 l#
b10010000 #
b10010000 +
b10010000 k#
0%
#395000
1%
#400000
b1000000000001010010011 &
b1000000000001010010011 0
b1000000000001010010011 l#
b10010100 #
b10010100 +
b10010100 k#
0%
#405000
1%
#410000
b1000000010110110101001010110011 &
b1000000010110110101001010110011 0
b1000000010110110101001010110011 l#
b10011000 #
b10011000 +
b10011000 k#
0%
#415000
1%
#420000
b1000001110001100110011 &
b1000001110001100110011 0
b1000001110001100110011 l#
b10011100 #
b10011100 +
b10011100 k#
0%
#425000
1%
#430000
b1000001111001110110011 &
b1000001111001110110011 0
b1000001111001110110011 l#
b10100000 #
b10100000 +
b10100000 k#
0%
#435000
1%
#440000
b10101011110011011000010000110111 &
b10101011110011011000010000110111 0
b10101011110011011000010000110111 l#
b10100100 #
b10100100 +
b10100100 k#
0%
#445000
1%
#450000
b1110110010101000000010000010011 &
b1110110010101000000010000010011 0
b1110110010101000000010000010011 l#
b10101000 #
b10101000 +
b10101000 k#
0%
#455000
1%
#460000
b10100000000010000000100011 &
b10100000000010000000100011 0
b10100000000010000000100011 l#
b10101100 #
b10101100 +
b10101100 k#
0%
#465000
1%
#470000
b10000000000000010010000011 &
b10000000000000010010000011 0
b10000000000000010010000011 l#
b10110000 #
b10110000 +
b10110000 k#
0%
#475000
1%
#480000
b10000000000001010100000011 &
b10000000000001010100000011 0
b10000000000001010100000011 l#
b10110100 #
b10110100 +
b10110100 k#
0%
#485000
1%
#490000
b10000100000100010110000011 &
b10000100000100010110000011 0
b10000100000100010110000011 l#
b10111000 #
b10111000 +
b10111000 k#
0%
#495000
1%
#500000
b10001000000101011000000011 &
b10001000000101011000000011 0
b10001000000101011000000011 l#
b10111100 #
b10111100 +
b10111100 k#
0%
#505000
1%
#510000
b11111111101100000000011010010011 &
b11111111101100000000011010010011 0
b11111111101100000000011010010011 l#
b11000000 #
b11000000 +
b11000000 k#
0%
#515000
1%
#520000
b10100000000011100010011 &
b10100000000011100010011 0
b10100000000011100010011 l#
b11000100 #
b11000100 +
b11000100 k#
0%
#525000
1%
#530000
b111001101100010001100011 &
b111001101100010001100011 0
b111001101100010001100011 l#
b11001000 #
b11001000 +
b11001000 k#
0%
#535000
1%
#540000
b10011 &
b10011 0
b10011 l#
b11001100 #
b11001100 +
b11001100 k#
0%
#545000
1%
#550000
b110101110101010001100011 &
b110101110101010001100011 0
b110101110101010001100011 l#
b11010000 #
b11010000 +
b11010000 k#
0%
#555000
1%
#560000
b10011 &
b10011 0
b10011 l#
b11010100 #
b11010100 +
b11010100 k#
0%
#565000
1%
#570000
b110101110110010001100011 &
b110101110110010001100011 0
b110101110110010001100011 l#
b11011000 #
b11011000 +
b11011000 k#
0%
#575000
1%
#580000
b10011 &
b10011 0
b10011 l#
b11011100 #
b11011100 +
b11011100 k#
0%
#585000
1%
#590000
b111001101111010001100011 &
b111001101111010001100011 0
b111001101111010001100011 l#
b11100000 #
b11100000 +
b11100000 k#
0%
#595000
1%
#600000
b10011 &
b10011 0
b10011 l#
b11100100 #
b11100100 +
b11100100 k#
0%
#605000
1%
#610000
b1101111 &
b1101111 0
b1101111 l#
b11101000 #
b11101000 +
b11101000 k#
0%
#615000
1%
#620000
b100 '$
b10100000000000010010011 h#
03
02
b10 `#
b10 V#
b1 N#
1P#
1[#
01
0n#
1(
0%
#625000
b1000 '$
b11100000000000100010011 h#
b1000 R
b1000 &$
b1 3"
b1 G"
b10 $#
b10 |"
1"#
b101 ^#
b1 Z#
b101 S#
b101 r
b101 >#
b101 s#
b101 -#
b101 7#
b1 5#
b101 ,$
b11100000000000100010011 m
b11100000000000100010011 d#
b11100000000000100010011 m#
b1 C"
b1000 N
b1000 7"
b1000 j#
b100 i#
b10 ?
b10 p"
b10 L#
b10 e
b10 s"
b10 D#
b1 ("
b1 /"
b1 ?#
1""
1K
b10100000000000010010011 n
b10100000000000010010011 e#
b10100000000000010010011 r#
b1000 X
b1000 b#
b100 S
b100 8"
b100 A"
b100 c#
b100 o#
b100 ($
1%
#630000
0%
