mophong_vcd/Top_Single_Cycle_tb.vcd
$date
	Mon May 11 14:44:21 2026
$end
$version
	Icarus Verilog
$end
$timescale
	1ps
$end
$scope module Top_Single_Cycle_tb $end
$var wire 32 ! pc [31:0] $end
$var wire 32 " instr [31:0] $end
$var reg 1 # clk $end
$var reg 32 $ inst_addr [31:0] $end
$var reg 32 % inst_data [31:0] $end
$var reg 1 & inst_we $end
$var reg 1 ' rst_n $end
$var reg 1 ( start $end
$scope module uut $end
$var wire 1 ) branch_taken $end
$var wire 1 # clk $end
$var wire 32 * inst_addr [31:0] $end
$var wire 32 + inst_data [31:0] $end
$var wire 1 & inst_we $end
$var wire 32 , pc_jalr [31:0] $end
$var wire 1 ' rst_n $end
$var wire 1 - stall $end
$var wire 1 ( start $end
$var wire 1 . zero $end
$var wire 2 / write_back_D [1:0] $end
$var wire 32 0 wb_data [31:0] $end
$var wire 3 1 store_sel_D [2:0] $end
$var wire 1 2 regWrite_D $end
$var wire 32 3 rd2 [31:0] $end
$var wire 32 4 rd1 [31:0] $end
$var wire 32 5 pc_plus_4 [31:0] $end
$var wire 32 6 pc_next [31:0] $end
$var wire 32 7 pc_branch [31:0] $end
$var wire 32 8 pc [31:0] $end
$var wire 32 9 mem_read_data [31:0] $end
$var wire 1 : memWrite_D $end
$var wire 3 ; load_sel_D [2:0] $end
$var wire 1 < less_unsigned $end
$var wire 1 = less_signed $end
$var wire 2 > jump_D [1:0] $end
$var wire 32 ? instr [31:0] $end
$var wire 3 @ imm_sel [2:0] $end
$var wire 32 A imm_ext [31:0] $end
$var wire 1 B equal $end
$var wire 3 C bropcode [2:0] $end
$var wire 1 D branch_D $end
$var wire 1 E alu_srcB_D $end
$var wire 1 F alu_srcA_D $end
$var wire 32 G alu_result [31:0] $end
$var wire 11 H alu_ctrl [10:0] $end
$var wire 32 I alu_b [31:0] $end
$var wire 32 J alu_a [31:0] $end
$scope module alu_unit $end
$var wire 32 K a [31:0] $end
$var wire 32 L b [31:0] $end
$var wire 1 . zero $end
$var wire 11 M alu_ctrl [10:0] $end
$var reg 32 N result [31:0] $end
$upscope $end
$scope module cu $end
$var wire 3 O funct3 [2:0] $end
$var wire 7 P funct7 [6:0] $end
$var wire 7 Q opcode [6:0] $end
$var parameter 11 R ALU_ADD $end
$var parameter 11 S ALU_AND $end
$var parameter 11 T ALU_LUI $end
$var parameter 11 U ALU_OR $end
$var parameter 11 V ALU_SLL $end
$var parameter 11 W ALU_SLT $end
$var parameter 11 X ALU_SLTU $end
$var parameter 11 Y ALU_SRA $end
$var parameter 11 Z ALU_SRL $end
$var parameter 11 [ ALU_SUB $end
$var parameter 11 \ ALU_XOR $end
$var reg 11 ] alu_ctrl [10:0] $end
$var reg 1 F alu_srcA_D $end
$var reg 1 E alu_srcB_D $end
$var reg 1 D branch_D $end
$var reg 3 ^ bropcode [2:0] $end
$var reg 3 _ imm_sel [2:0] $end
$var reg 2 ` jump_D [1:0] $end
$var reg 3 a load_sel_D [2:0] $end
$var reg 1 : memWrite_D $end
$var reg 1 2 regWrite_D $end
$var reg 3 b store_sel_D [2:0] $end
$var reg 1 c uses_rs1_D $end
$var reg 1 d uses_rs2_D $end
$var reg 2 e write_back_D [1:0] $end
$upscope $end
$scope module dmem $end
$var wire 32 f addr [31:0] $end
$var wire 1 # clk $end
$var wire 10 g debug_addr [9:0] $end
$var wire 32 h debug_val [31:0] $end
$var wire 3 i load_sel [2:0] $end
$var wire 1 : mem_write $end
$var wire 32 j raw_word [31:0] $end
$var wire 3 k store_sel [2:0] $end
$var wire 32 l write_data [31:0] $end
$var reg 8 m byte_to_load [7:0] $end
$var reg 16 n half_to_load [15:0] $end
$var reg 32 o read_data [31:0] $end
$upscope $end
$scope module imm_gen $end
$var wire 3 p imm_sel [2:0] $end
$var wire 32 q instr [31:0] $end
$var reg 32 r imm_ext [31:0] $end
$upscope $end
$scope module instr_mem $end
$var wire 32 s addr_ext [31:0] $end
$var wire 1 # clk $end
$var wire 32 t din_ext [31:0] $end
$var wire 32 u instr [31:0] $end
$var wire 1 ' rst_n $end
$var wire 1 & we $end
$var wire 32 v pc [31:0] $end
$var integer 32 w i [31:0] $end
$upscope $end
$scope module pc_reg $end
$var wire 1 # clk $end
$var wire 32 x pc_next [31:0] $end
$var wire 1 ' rst_n $end
$var wire 1 - stall $end
$var wire 1 ( start $end
$var reg 32 y next_pc_val [31:0] $end
$var reg 32 z pc_out [31:0] $end
$upscope $end
$scope module regfile $end
$var wire 1 # clk $end
$var wire 5 { debug_addr [4:0] $end
$var wire 5 | rd [4:0] $end
$var wire 1 2 reg_write $end
$var wire 5 } rs1 [4:0] $end
$var wire 5 ~ rs2 [4:0] $end
$var wire 1 ' rst_n $end
$var wire 32 !" wd [31:0] $end
$var wire 32 "" rd2 [31:0] $end
$var wire 32 #" rd1 [31:0] $end
$var wire 32 $" debug_val [31:0] $end
$var integer 32 %" i [31:0] $end
$upscope $end
$upscope $end
$scope task dump_registers $end
$var integer 32 &" j [31:0] $end
$upscope $end
$upscope $end
$enddefinitions $end
$comment Show the parameter values. $end
$dumpall
b100000 \
b10 [
b1000000 Z
b10000000 Y
b10000 X
b1000 W
b100 V
b100000000 U
b10000000000 T
b1000000000 S
b1 R
$end
#0
$dumpvars
bx &"
b100000 %"
b0 $"
b0 #"
b0 ""
b0 !"
b0 ~
b0 }
b0 |
b0 {
b0 z
b0 y
b100 x
b1111111111 w
b0 v
b10011 u
b0 t
b0 s
b0 r
b10011 q
b0 p
bx o
bx n
bx m
b0 l
b10 k
bx j
b10 i
bx h
b0 g
b0 f
b0 e
0d
1c
b10 b
b10 a
b0 `
b0 _
b0 ^
b1 ]
b10011 Q
b0 P
b0 O
b0 N
b1 M
b0 L
b0 K
b0 J
b0 I
b1 H
b0 G
0F
1E
0D
b0 C
1B
b0 A
b0 @
b10011 ?
b0 >
0=
0<
b10 ;
0:
bx 9
b0 8
b0 7
b100 6
b100 5
b0 4
b0 3
12
b10 1
b0 0
b0 /
1.
0-
b0 ,
b0 +
b0 *
0)
0(
0'
0&
b0 %
b0 $
0#
b10011 "
b0 !
$end
#5000
b100000 %"
b1111111111 w
1#
#10000
0#
1&
1'
#15000
0c
0E
02
b0 Q
b0 "
b0 ?
b0 q
b0 u
1#
#20000
0#
b101000000000001010010011 %
b101000000000001010010011 +
b101000000000001010010011 t
#25000
b1010 0
b1010 !"
0.
b1010 ,
b1010 G
b1010 N
b1010 f
b1010 I
b1010 L
1c
1E
12
b101 |
b1010 ~
b10011 Q
b1010 7
b1010 A
b1010 r
b101000000000001010010011 "
b101000000000001010010011 ?
b101000000000001010010011 q
b101000000000001010010011 u
1#
#30000
0#
b10100000010001100010011 %
b10100000010001100010011 +
b10100000010001100010011 t
b100 $
b100 *
b100 s
#35000
1#
#40000
0#
b111100000011001110010011 %
b111100000011001110010011 +
b111100000011001110010011 t
b1000 $
b1000 *
b1000 s
#45000
1#
#50000
0#
b1100101100010000010011 %
b1100101100010000010011 +
b1100101100010000010011 t
b1100 $
b1100 *
b1100 s
#55000
1#
#60000
0#
b11101000110010010010011 %
b11101000110010010010011 +
b11101000110010010010011 t
b10000 $
b10000 *
b10000 s
#65000
1#
#70000
0#
b111101001111010100010011 %
b111101001111010100010011 +
b111101001111010100010011 t
b10100 $
b10100 *
b10100 s
#75000
1#
#80000
0#
b100101001010110010011 %
b100101001010110010011 +
b100101001010110010011 t
b11000 $
b11000 *
b11000 s
#85000
1#
#90000
0#
b101011101011000010011 %
b101011101011000010011 +
b101011101011000010011 t
b11100 $
b11100 *
b11100 s
#95000
1#
#100000
0#
b1000000000101011101011010010011 %
b1000000000101011101011010010011 +
b1000000000101011101011010010011 t
b100000 $
b100000 *
b100000 s
#105000
1#
#110000
0#
b11000101000011100110011 %
b11000101000011100110011 +
b11000101000011100110011 t
b100100 $
b100100 *
b100100 s
#115000
1#
#120000
0#
b1000000011000101000011110110011 %
b1000000011000101000011110110011 +
b1000000011000101000011110110011 t
b101000 $
b101000 *
b101000 s
#125000
1#
#130000
0#
b11000101001100000110011 %
b11000101001100000110011 +
b11000101001100000110011 t
b101100 $
b101100 *
b101100 s
#135000
1#
#140000
0#
b11000101010100010110011 %
b11000101010100010110011 +
b11000101010100010110011 t
b110000 $
b110000 *
b110000 s
#145000
1#
#150000
0#
b11000101011100100110011 %
b11000101011100100110011 +
b11000101011100100110011 t
b110100 $
b110100 *
b110100 s
#155000
1#
#160000
0#
b11000101100100110110011 %
b11000101100100110110011 +
b11000101100100110110011 t
b111000 $
b111000 *
b111000 s
#165000
1#
#170000
0#
b11000101101101000110011 %
b11000101101101000110011 +
b11000101101101000110011 t
b111100 $
b111100 *
b111100 s
#175000
1#
#180000
0#
b1000000011000101101101010110011 %
b1000000011000101101101010110011 +
b1000000011000101101101010110011 t
b1000000 $
b1000000 *
b1000000 s
#185000
1#
#190000
0#
b11000101110101100110011 %
b11000101110101100110011 +
b11000101110101100110011 t
b1000100 $
b1000100 *
b1000100 s
#195000
1#
#200000
0#
b11000101111101100110011 %
b11000101111101100110011 +
b11000101111101100110011 t
b1001000 $
b1001000 *
b1001000 s
#205000
1#
#210000
0#
b100010011 %
b100010011 +
b100010011 t
b1001100 $
b1001100 *
b1001100 s
#215000
1#
#220000
0#
b10100010010000000100011 %
b10100010010000000100011 +
b10100010010000000100011 t
b1010000 $
b1010000 *
b1010000 s
#225000
1#
#230000
0#
b10100010010001000100011 %
b10100010010001000100011 +
b10100010010001000100011 t
b1010100 $
b1010100 *
b1010100 s
#235000
1#
#240000
0#
b100000010010110100000011 %
b100000010010110100000011 +
b100000010010110100000011 t
b1011000 $
b1011000 *
b1011000 s
#245000
1#
#250000
0#
b10000110000000011 %
b10000110000000011 +
b10000110000000011 t
b1011100 $
b1011100 *
b1011100 s
#255000
1#
#260000
0#
b10000010001110010000011 %
b10000010001110010000011 +
b10000010001110010000011 t
b1100000 $
b1100000 *
b1100000 s
#265000
1#
#270000
0#
b10010110100000011 %
b10010110100000011 +
b10010110100000011 t
b1100100 $
b1100100 *
b1100100 s
#275000
1#
#280000
0#
b10100110110000011 %
b10100110110000011 +
b10100110110000011 t
b1101000 $
b1101000 *
b1101000 s
#285000
1#
#290000
0#
b10000010101111000000011 %
b10000010101111000000011 +
b10000010101111000000011 t
b1101100 $
b1101100 *
b1101100 s
#295000
1#
#300000
0#
b10010001101000101111000110111 %
b10010001101000101111000110111 +
b10010001101000101111000110111 t
b1110000 $
b1110000 *
b1110000 s
#305000
1#
#310000
0#
b1111010110111 %
b1111010110111 +
b1111010110111 t
b1110100 $
b1110100 *
b1110100 s
#315000
1#
#320000
0#
b100000000000111101101111 %
b100000000000111101101111 +
b100000000000111101101111 t
b1111000 $
b1111000 *
b1111000 s
#325000
1#
#330000
0#
b1010000000000001010010011 %
b1010000000000001010010011 +
b1010000000000001010010011 t
b1111100 $
b1111100 *
b1111100 s
#335000
1#
#340000
0#
b111110010111 %
b111110010111 +
b111110010111 t
b10000000 $
b10000000 *
b10000000 s
#345000
1#
#350000
0#
b11000101000010001100011 %
b11000101000010001100011 +
b11000101000010001100011 t
b10000100 $
b10000100 *
b10000100 s
#355000
1#
#360000
0#
b11000101001010001100011 %
b11000101001010001100011 +
b11000101001010001100011 t
b10001000 $
b10001000 *
b10001000 s
#365000
1#
#370000
0#
b1010000000000001010010011 %
b1010000000000001010010011 +
b1010000000000001010010011 t
b10001100 $
b10001100 *
b10001100 s
#375000
1#
#380000
0#
b11000101100010001100011 %
b11000101100010001100011 +
b11000101100010001100011 t
b10010000 $
b10010000 *
b10010000 s
#385000
1#
#390000
0#
b10100110101010001100011 %
b10100110101010001100011 +
b10100110101010001100011 t
b10010100 $
b10010100 *
b10010100 s
#395000
1#
#400000
0#
b10011 %
b10011 +
b10011 t
b10011000 $
b10011000 *
b10011000 s
#405000
1#
#410000
0#
b1101111 %
b1101111 +
b1101111 t
b10011100 $
b10011100 *
b10011100 s
#415000
1#
#420000
0#
0&
#421000
b100 y
1(
#425000
b1 0
b1 !"
1<
1=
0B
b1010 3
b1010 l
b1010 ""
b1 ,
b1 G
b1 N
b1 f
b1000 y
b1000 H
b1000 M
b1000 ]
1c
1E
12
b101 I
b101 L
b1000 6
b1000 x
b110 |
b101 ~
b10 O
b101 A
b101 r
b10100000010001100010011 "
b10100000010001100010011 ?
b10100000010001100010011 q
b10100000010001100010011 u
b1001 7
b1000 5
b100 !
b100 8
b100 v
b100 z
1#
#430000
0#
#435000
0<
0=
1B
b0 3
b0 l
b0 ""
b1100 y
1c
b10000 H
b10000 M
b10000 ]
1E
12
b1111 I
b1111 L
b1100 6
b1100 x
b111 |
b1111 ~
b11 O
b1111 A
b1111 r
b111100000011001110010011 "
b111100000011001110010011 ?
b111100000011001110010011 q
b111100000011001110010011 u
b10111 7
b1100 5
b1000 !
b1000 8
b1000 v
b1000 z
1#
#440000
0#
#445000
b1010 J
b1010 K
b1001 0
b1001 !"
0B
b1010 4
b1010 #"
b1001 ,
b1001 G
b1001 N
b1001 f
b10000 y
1c
b100000 H
b100000 M
b100000 ]
1E
12
b11 I
b11 L
b10000 6
b10000 x
b1000 |
b11 ~
b101 }
b100 O
b11 A
b11 r
b1100101100010000010011 "
b1100101100010000010011 ?
b1100101100010000010011 q
b1100101100010000010011 u
b1111 7
b10000 5
b1100 !
b1100 8
b1100 v
b1100 z
1#
#450000
0#
#455000
b1001 J
b1001 K
b1111 0
b1111 !"
b1 3
b1 l
b1 ""
b1001 4
b1001 #"
b1111 ,
b1111 G
b1111 N
b1111 f
b10100 y
1c
b100000000 H
b100000000 M
b100000000 ]
1E
12
b111 I
b111 L
b10100 6
b10100 x
b1001 |
b111 ~
b1000 }
b110 O
b111 A
b111 r
b11101000110010010010011 "
b11101000110010010010011 ?
b11101000110010010010011 q
b11101000110010010010011 u
b10111 7
b10100 5
b10000 !
b10000 8
b10000 v
b10000 z
1#
#460000
0#
#465000
b1111 J
b1111 K
b1111 0
b1111 !"
b0 3
b0 l
b0 ""
b1111 4
b1111 #"
b1111 ,
b1111 G
b1111 N
b1111 f
b11000 y
1c
b1000000000 H
b1000000000 M
b1000000000 ]
1E
12
b1111 I
b1111 L
b11000 6
b11000 x
b1010 |
b1111 ~
b1001 }
b111 O
b1111 A
b1111 r
b111101001111010100010011 "
b111101001111010100010011 ?
b111101001111010100010011 q
b111101001111010100010011 u
b100011 7
b11000 5
b10100 !
b10100 8
b10100 v
b10100 z
1#
#470000
0#
#475000
b1010 J
b1010 K
b10100 0
b10100 !"
b1010 4
b1010 #"
b10100 ,
b10100 G
b10100 N
b10100 f
b11100 y
1c
b100 H
b100 M
b100 ]
1E
12
b1 I
b1 L
b11100 6
b11100 x
b1011 |
b1 ~
b101 }
b1 O
b1 A
b1 r
b100101001010110010011 "
b100101001010110010011 ?
b100101001010110010011 q
b100101001010110010011 u
b11001 7
b11100 5
b11000 !
b11000 8
b11000 v
b11000 z
1#
#480000
0#
#485000
b10100 J
b10100 K
b1010 0
b1010 !"
b10100 4
b10100 #"
b1010 ,
b1010 G
b1010 N
b1010 f
b100000 y
1c
b1000000 H
b1000000 M
b1000000 ]
1E
12
b100000 6
b100000 x
b1100 |
b1011 }
b101 O
b101011101011000010011 "
b101011101011000010011 ?
b101011101011000010011 q
b101011101011000010011 u
b11101 7
b100000 5
b11100 !
b11100 8
b11100 v
b11100 z
1#
#490000
0#
#495000
b100100 y
1c
b10000000 H
b10000000 M
b10000000 ]
1E
12
b10000000001 I
b10000000001 L
b100100 6
b100100 x
b1101 |
b100000 P
b10000000001 A
b10000000001 r
b1000000000101011101011010010011 "
b1000000000101011101011010010011 ?
b1000000000101011101011010010011 q
b1000000000101011101011010010011 u
b10000100001 7
b100100 5
b100000 !
b100000 8
b100000 v
b100000 z
1#
#500000
0#
#505000
b1010 J
b1010 K
b1011 0
b1011 !"
b1 3
b1 l
b1 ""
b1010 4
b1010 #"
b1011 ,
b1011 G
b1011 N
b1011 f
b101000 y
1d
1c
b1 H
b1 M
b1 ]
0E
12
b1 I
b1 L
b101000 6
b101000 x
b1110 |
b110 ~
b101 }
b0 P
b0 O
b110011 Q
b110 A
b110 r
b11000101000011100110011 "
b11000101000011100110011 ?
b11000101000011100110011 q
b11000101000011100110011 u
b101010 7
b101000 5
b100100 !
b100100 8
b100100 v
b100100 z
1#
#510000
0#
#515000
b1001 0
b1001 !"
b1001 ,
b1001 G
b1001 N
b1001 f
b101100 y
b10 H
b10 M
b10 ]
1d
1c
12
b101100 6
b101100 x
b1111 |
b100000 P
b10000000110 A
b10000000110 r
b1000000011000101000011110110011 "
b1000000011000101000011110110011 ?
b1000000011000101000011110110011 q
b1000000011000101000011110110011 u
b10000101110 7
b101100 5
b101000 !
b101000 8
b101000 v
b101000 z
1#
#520000
0#
#525000
b10100 0
b10100 !"
b10100 ,
b10100 G
b10100 N
b10100 f
b110000 y
1d
1c
b100 H
b100 M
b100 ]
12
b110000 6
b110000 x
b10000 |
b0 P
b1 O
b110 A
b110 r
b11000101001100000110011 "
b11000101001100000110011 ?
b11000101001100000110011 q
b11000101001100000110011 u
b110010 7
b110000 5
b101100 !
b101100 8
b101100 v
b101100 z
1#
#530000
0#
#535000
b0 0
b0 !"
1.
b0 ,
b0 G
b0 N
b0 f
b110100 y
1d
1c
b1000 H
b1000 M
b1000 ]
12
b110100 6
b110100 x
b10001 |
b10 O
b11000101010100010110011 "
b11000101010100010110011 ?
b11000101010100010110011 q
b11000101010100010110011 u
b110110 7
b110100 5
b110000 !
b110000 8
b110000 v
b110000 z
1#
#540000
0#
#545000
b111000 y
1d
1c
b10000 H
b10000 M
b10000 ]
12
b111000 6
b111000 x
b10010 |
b11 O
b11000101011100100110011 "
b11000101011100100110011 ?
b11000101011100100110011 q
b11000101011100100110011 u
b111010 7
b111000 5
b110100 !
b110100 8
b110100 v
b110100 z
1#
#550000
0#
#555000
b1011 0
b1011 !"
0.
b1011 ,
b1011 G
b1011 N
b1011 f
b111100 y
1d
1c
b100000 H
b100000 M
b100000 ]
12
b111100 6
b111100 x
b10011 |
b100 O
b11000101100100110110011 "
b11000101100100110110011 ?
b11000101100100110110011 q
b11000101100100110110011 u
b111110 7
b111100 5
b111000 !
b111000 8
b111000 v
b111000 z
1#
#560000
0#
#565000
b101 0
b101 !"
b101 ,
b101 G
b101 N
b101 f
b1000000 y
1d
1c
b1000000 H
b1000000 M
b1000000 ]
12
b1000000 6
b1000000 x
b10100 |
b101 O
b11000101101101000110011 "
b11000101101101000110011 ?
b11000101101101000110011 q
b11000101101101000110011 u
b1000010 7
b1000000 5
b111100 !
b111100 8
b111100 v
b111100 z
1#
#570000
0#
#575000
b1000100 y
1d
1c
b10000000 H
b10000000 M
b10000000 ]
12
b1000100 6
b1000100 x
b10101 |
b100000 P
b10000000110 A
b10000000110 r
b1000000011000101101101010110011 "
b1000000011000101101101010110011 ?
b1000000011000101101101010110011 q
b1000000011000101101101010110011 u
b10001000110 7
b1000100 5
b1000000 !
b1000000 8
b1000000 v
b1000000 z
1#
#580000
0#
#585000
b1011 0
b1011 !"
b1011 ,
b1011 G
b1011 N
b1011 f
b1001000 y
1d
1c
b100000000 H
b100000000 M
b100000000 ]
12
b1001000 6
b1001000 x
b10110 |
b0 P
b110 O
b110 A
b110 r
b11000101110101100110011 "
b11000101110101100110011 ?
b11000101110101100110011 q
b11000101110101100110011 u
b1001010 7
b1001000 5
b1000100 !
b1000100 8
b1000100 v
b1000100 z
1#
#590000
0#
#595000
b0 0
b0 !"
1.
b0 ,
b0 G
b0 N
b0 f
b1001100 y
1d
1c
b1000000000 H
b1000000000 M
b1000000000 ]
12
b1001100 6
b1001100 x
b111 O
b11000101111101100110011 "
b11000101111101100110011 ?
b11000101111101100110011 q
b11000101111101100110011 u
b1001110 7
b1001100 5
b1001000 !
b1001000 8
b1001000 v
b1001000 z
1#
#600000
0#
#605000
b0 J
b0 K
b0 I
b0 L
b0 0
b0 !"
1B
b0 3
b0 l
b0 ""
0<
0=
b0 4
b0 #"
1.
b0 ,
b0 G
b0 N
b0 f
b1010000 y
1E
0d
1c
b1 H
b1 M
b1 ]
12
b1010000 6
b1010000 x
b10 |
b0 ~
b0 }
b0 O
b10011 Q
b0 A
b0 r
b100010011 "
b100010011 ?
b100010011 q
b100010011 u
b1001100 7
b1010000 5
b1001100 !
b1001100 8
b1001100 v
b1001100 z
1#
#610000
0#
#615000
b0 0
b0 !"
1<
1=
0B
b1010 3
b1010 l
b1010 ""
1.
b0 ,
b0 G
b0 N
b0 f
b1010100 y
1d
b1 @
b1 _
b1 p
1:
1c
1E
02
b0 I
b0 L
b1010100 6
b1010100 x
b0 |
b101 ~
b10 }
b10 O
b100011 Q
b0 A
b0 r
b10100010010000000100011 "
b10100010010000000100011 ?
b10100010010000000100011 q
b10100010010000000100011 u
b1010000 7
b1010100 5
b1010000 !
b1010000 8
b1010000 v
b1010000 z
1#
#620000
0#
#625000
b100 0
b100 !"
0.
b100 ,
b100 G
b100 N
b100 f
b1011000 y
b100 I
b100 L
b1011000 6
b1011000 x
b100 |
b100 A
b100 r
bx 9
bx o
bx n
bx m
b10100010010001000100011 "
b10100010010001000100011 ?
b10100010010001000100011 q
b10100010010001000100011 u
bx j
b1010 h
b1011000 7
b1011000 5
b1010100 !
b1010100 8
b1010100 v
b1010100 z
1#
#630000
0#
#635000
b1001 3
b1001 l
b1001 ""
bx 0
bx !"
b1000 ,
b1000 G
b1000 N
b1000 f
b1011100 y
b1 /
b1 e
12
0d
1c
0:
1E
b0 @
b0 _
b0 p
b1000 I
b1000 L
b1011100 6
b1011100 x
b11010 |
b1000 ~
b11 Q
b1000 A
b1000 r
bx 9
bx o
bx n
bx m
b100000010010110100000011 "
b100000010010110100000011 ?
b100000010010110100000011 q
b100000010010110100000011 u
bx j
b1100000 7
b1011100 5
b1011000 !
b1011000 8
b1011000 v
b1011000 z
1#
#640000
0#
#645000
b1010 0
b1010 !"
b1010 9
b1010 o
b1010 n
b1010 m
b1010 j
0<
0=
1B
b0 3
b0 l
b0 ""
1.
b0 ,
b0 G
b0 N
b0 f
b1100000 y
b0 ;
b0 a
b0 i
1c
b1 /
b1 e
1E
12
b0 I
b0 L
b1100000 6
b1100000 x
b11000 |
b0 ~
b0 O
b0 A
b0 r
b10000110000000011 "
b10000110000000011 ?
b10000110000000011 q
b10000110000000011 u
b1011100 7
b1100000 5
b1011100 !
b1011100 8
b1011100 v
b1011100 z
1#
#650000
0#
#655000
0.
b100 ,
b100 G
b100 N
b100 f
b1100100 y
1c
b1 /
b1 e
b1 ;
b1 a
b1 i
1E
12
b100 I
b100 L
b1100100 6
b1100100 x
b11001 |
b100 ~
b1 O
b100 A
b100 r
b10000010001110010000011 "
b10000010001110010000011 ?
b10000010001110010000011 q
b10000010001110010000011 u
b1100100 7
b1100100 5
b1100000 !
b1100000 8
b1100000 v
b1100000 z
1#
#660000
0#
#665000
1.
b0 ,
b0 G
b0 N
b0 f
b1101000 y
1c
b1 /
b1 e
b10 ;
b10 a
b10 i
1E
12
b0 I
b0 L
b1101000 6
b1101000 x
b11010 |
b0 ~
b10 O
b0 A
b0 r
b10010110100000011 "
b10010110100000011 ?
b10010110100000011 q
b10010110100000011 u
b1100100 7
b1101000 5
b1100100 !
b1100100 8
b1100100 v
b1100100 z
1#
#670000
0#
#675000
b1101100 y
b100 ;
b100 a
b100 i
1c
b1 /
b1 e
1E
12
b1101100 6
b1101100 x
b11011 |
b100 O
b10100110110000011 "
b10100110110000011 ?
b10100110110000011 q
b10100110110000011 u
b1101000 7
b1101100 5
b1101000 !
b1101000 8
b1101000 v
b1101000 z
1#
#680000
0#
#685000
0.
b100 ,
b100 G
b100 N
b100 f
b1110000 y
1c
b1 /
b1 e
b101 ;
b101 a
b101 i
1E
12
b100 I
b100 L
b1110000 6
b1110000 x
b11100 |
b100 ~
b101 O
b100 A
b100 r
b10000010101111000000011 "
b10000010101111000000011 ?
b10000010101111000000011 q
b10000010101111000000011 u
b1110000 7
b1110000 5
b1101100 !
b1101100 8
b1101100 v
b1101100 z
1#
#690000
0#
#695000
b1010 9
b1010 o
b1001 J
b1001 K
b1010 j
0B
b1001 4
b1001 #"
b10010001101000101000000000000 0
b10010001101000101000000000000 !"
b1010 n
b1010 m
b10010001101000101000000000000 ,
b10010001101000101000000000000 G
b10010001101000101000000000000 N
b10010001101000101000000000000 f
b1110100 y
b10000000000 H
b10000000000 M
b10000000000 ]
b11 @
b11 _
b11 p
0c
b0 /
b0 e
b10 ;
b10 a
b10 i
1E
12
b10010001101000101000000000000 I
b10010001101000101000000000000 L
b1110100 6
b1110100 x
b11 ~
b1000 }
b1001 P
b110111 Q
b10010001101000101000000000000 A
b10010001101000101000000000000 r
b10010001101000101111000110111 "
b10010001101000101111000110111 ?
b10010001101000101111000110111 q
b10010001101000101111000110111 u
b10010001101000101000001110000 7
b1110100 5
b1110000 !
b1110000 8
b1110000 v
b1110000 z
1#
#700000
0#
#705000
b0 J
b0 K
b1000000000000 0
b1000000000000 !"
1B
b0 4
b0 #"
b1000000000000 ,
b1000000000000 G
b1000000000000 N
b1000000000000 f
b1111000 y
b10000000000 H
b10000000000 M
b10000000000 ]
1E
b11 @
b11 _
b11 p
12
b1000000000000 I
b1000000000000 L
b1111000 6
b1111000 x
b11101 |
b0 ~
b0 }
b0 P
b1 O
b1000000000000 A
b1000000000000 r
b1111010110111 "
b1111010110111 ?
b1111010110111 q
b1111010110111 u
b1000001110100 7
b1111000 5
b1110100 !
b1110100 8
b1110100 v
b1110100 z
1#
#710000
0#
#715000
bx 9
bx o
bx n
bx m
bx j
1<
1=
0B
b1001 3
b1001 l
b1001 ""
b1111100 0
b1111100 !"
b1001 ,
b1001 G
b1001 N
b1001 f
b10000000 y
b10 /
b10 e
b1 >
b1 `
b1 H
b1 M
b1 ]
0E
b100 @
b100 _
b100 p
12
b1001 I
b1001 L
b10000000 6
b10000000 x
b11110 |
b1000 ~
b0 O
b1101111 Q
b1000 A
b1000 r
b100000000000111101101111 "
b100000000000111101101111 ?
b100000000000111101101111 q
b100000000000111101101111 u
b10000000 7
b1111100 5
b1111000 !
b1111000 8
b1111000 v
b1111000 z
1#
#720000
0#
#725000
b10000000 ,
b10000000 G
b10000000 N
b10000000 f
b0 I
b0 L
b10000000 J
b10000000 K
0<
0=
1B
b0 3
b0 l
b0 ""
1E
1F
b0 /
b0 e
b0 >
b0 `
b11 @
b11 _
b11 p
12
b10000000 0
b10000000 !"
b11111 |
b0 ~
b10111 Q
b0 A
b0 r
b10000100 y
b111110010111 "
b111110010111 ?
b111110010111 q
b111110010111 u
b10000100 6
b10000100 x
b10000000 7
b10000100 5
b10000000 !
b10000000 8
b10000000 v
b10000000 z
1#
#730000
0#
#735000
b1 3
b1 l
b1 ""
0B
b1010 4
b1010 #"
0)
b10001000 y
1d
1c
b10 H
b10 M
b10 ]
1D
0E
0F
b10 @
b10 _
b10 p
02
b1 I
b1 L
b10001000 6
b10001000 x
b1001 0
b1001 !"
b1000 |
b110 ~
b101 }
b1100011 Q
b1000 A
b1000 r
b1001 ,
b1001 G
b1001 N
b1001 f
b11000101000010001100011 "
b11000101000010001100011 ?
b11000101000010001100011 q
b11000101000010001100011 u
b1010 J
b1010 K
b10001100 7
b10001000 5
b10000100 !
b10000100 8
b10000100 v
b10000100 z
1#
#740000
0#
#745000
1)
b10010000 y
b1 C
b1 ^
1d
1c
1D
b10 H
b10 M
b10 ]
b10 @
b10 _
b10 p
b10010000 6
b10010000 x
b1 O
b11000101001010001100011 "
b11000101001010001100011 ?
b11000101001010001100011 q
b11000101001010001100011 u
b10010000 7
b10001100 5
b10001000 !
b10001000 8
b10001000 v
b10001000 z
1#
#750000
0#
#755000
0)
b10010100 y
1d
1c
b100 C
b100 ^
1D
b10 H
b10 M
b10 ]
b10 @
b10 _
b10 p
b10010100 6
b10010100 x
b100 O
b11000101100010001100011 "
b11000101100010001100011 ?
b11000101100010001100011 q
b11000101100010001100011 u
b10011000 7
b10010100 5
b10010000 !
b10010000 8
b10010000 v
b10010000 z
1#
#760000
0#
#765000
0)
b11111111111111111111111111110111 0
b11111111111111111111111111110111 !"
b11111111111111111111111111110111 ,
b11111111111111111111111111110111 G
b11111111111111111111111111110111 N
b11111111111111111111111111110111 f
b1010 I
b1010 L
b1 J
b1 K
1<
1=
b1010 3
b1010 l
b1010 ""
0B
b1 4
b1 #"
b10011000 y
1d
1c
b101 C
b101 ^
1D
b10 H
b10 M
b10 ]
b10 @
b10 _
b10 p
b10011000 6
b10011000 x
b101 ~
b110 }
b101 O
b10100110101010001100011 "
b10100110101010001100011 ?
b10100110101010001100011 q
b10100110101010001100011 u
b10011100 7
b10011000 5
b10010100 !
b10010100 8
b10010100 v
b10010100 z
1#
#770000
0#
#775000
b1010 9
b1010 o
b1010 n
b1010 m
b1010 j
1.
b0 J
b0 K
b0 I
b0 L
b0 0
b0 !"
0<
0=
1B
b0 3
b0 l
b0 ""
b0 4
b0 #"
b0 ,
b0 G
b0 N
b0 f
b10011100 y
1E
12
0d
1c
b0 C
b0 ^
0D
b1 H
b1 M
b1 ]
b0 @
b0 _
b0 p
b10011100 6
b10011100 x
b0 |
b0 ~
b0 }
b0 O
b10011 Q
b0 A
b0 r
b10011 "
b10011 ?
b10011 q
b10011 u
b10011000 7
b10011100 5
b10011000 !
b10011000 8
b10011000 v
b10011000 z
1#
#780000
0#
#785000
b10100000 0
b10100000 !"
b10011100 y
b10 /
b10 e
b1 >
b1 `
b100 @
b100 _
b100 p
0c
0E
12
b10011100 6
b10011100 x
b1101111 Q
b1101111 "
b1101111 ?
b1101111 q
b1101111 u
b10011100 7
b10100000 5
b10011100 !
b10011100 8
b10011100 v
b10011100 z
1#
